([('calcjp.exe',
   'C:\\Users\\Juan\\repos\\calcjp\\build\\calcjp\\calcjp.exe',
   'EXECUTABLE'),
  ('calcjp.exe.manifest',
   'C:\\Users\\Juan\\repos\\calcjp\\build\\calcjp\\calcjp.exe.manifest',
   'BINARY'),
  ('0.png', './pngs\\0.png', 'DATA'),
  ('1.png', './pngs\\1.png', 'DATA'),
  ('2.png', './pngs\\2.png', 'DATA'),
  ('3.png', './pngs\\3.png', 'DATA'),
  ('4.png', './pngs\\4.png', 'DATA'),
  ('5.png', './pngs\\5.png', 'DATA'),
  ('6.png', './pngs\\6.png', 'DATA'),
  ('7.png', './pngs\\7.png', 'DATA'),
  ('8.png', './pngs\\8.png', 'DATA'),
  ('9.png', './pngs\\9.png', 'DATA'),
  ('AC.png', './pngs\\AC.png', 'DATA'),
  ('by.png', './pngs\\by.png', 'DATA'),
  ('c.png', './pngs\\c.png', 'DATA'),
  ('dot.png', './pngs\\dot.png', 'DATA'),
  ('is.png', './pngs\\is.png', 'DATA'),
  ('logo.png', './pngs\\logo.png', 'DATA'),
  ('minus.png', './pngs\\minus.png', 'DATA'),
  ('plus.png', './pngs\\plus.png', 'DATA'),
  ('times.png', './pngs\\times.png', 'DATA'),
  ('VCRUNTIME140.dll',
   'c:\\users\\juan\\appdata\\local\\programs\\python\\python37-32\\VCRUNTIME140.dll',
   'BINARY'),
  ('python37.dll',
   'c:\\users\\juan\\appdata\\local\\programs\\python\\python37-32\\python37.dll',
   'BINARY'),
  ('pythoncom37.dll',
   'c:\\users\\juan\\appdata\\local\\programs\\python\\python37-32\\lib\\site-packages\\pywin32_system32\\pythoncom37.dll',
   'BINARY'),
  ('pywintypes37.dll',
   'c:\\users\\juan\\appdata\\local\\programs\\python\\python37-32\\lib\\site-packages\\pywin32_system32\\pywintypes37.dll',
   'BINARY'),
  ('win32trace',
   'c:\\users\\juan\\appdata\\local\\programs\\python\\python37-32\\lib\\site-packages\\win32\\win32trace.pyd',
   'EXTENSION'),
  ('win32ui',
   'c:\\users\\juan\\appdata\\local\\programs\\python\\python37-32\\lib\\site-packages\\Pythonwin\\win32ui.pyd',
   'EXTENSION'),
  ('_win32sysloader',
   'c:\\users\\juan\\appdata\\local\\programs\\python\\python37-32\\lib\\site-packages\\win32\\_win32sysloader.pyd',
   'EXTENSION'),
  ('win32api',
   'c:\\users\\juan\\appdata\\local\\programs\\python\\python37-32\\lib\\site-packages\\win32\\win32api.pyd',
   'EXTENSION'),
  ('win32wnet',
   'c:\\users\\juan\\appdata\\local\\programs\\python\\python37-32\\lib\\site-packages\\win32\\win32wnet.pyd',
   'EXTENSION'),
  ('_ctypes',
   'c:\\users\\juan\\appdata\\local\\programs\\python\\python37-32\\DLLs\\_ctypes.pyd',
   'EXTENSION'),
  ('win32com.shell.shell',
   'c:\\users\\juan\\appdata\\local\\programs\\python\\python37-32\\lib\\site-packages\\win32comext\\shell\\shell.pyd',
   'EXTENSION'),
  ('_elementtree',
   'c:\\users\\juan\\appdata\\local\\programs\\python\\python37-32\\DLLs\\_elementtree.pyd',
   'EXTENSION'),
  ('_decimal',
   'c:\\users\\juan\\appdata\\local\\programs\\python\\python37-32\\DLLs\\_decimal.pyd',
   'EXTENSION'),
  ('_queue',
   'c:\\users\\juan\\appdata\\local\\programs\\python\\python37-32\\DLLs\\_queue.pyd',
   'EXTENSION'),
  ('_multiprocessing',
   'c:\\users\\juan\\appdata\\local\\programs\\python\\python37-32\\DLLs\\_multiprocessing.pyd',
   'EXTENSION'),
  ('_ssl',
   'c:\\users\\juan\\appdata\\local\\programs\\python\\python37-32\\DLLs\\_ssl.pyd',
   'EXTENSION'),
  ('pyexpat',
   'c:\\users\\juan\\appdata\\local\\programs\\python\\python37-32\\DLLs\\pyexpat.pyd',
   'EXTENSION'),
  ('unicodedata',
   'c:\\users\\juan\\appdata\\local\\programs\\python\\python37-32\\DLLs\\unicodedata.pyd',
   'EXTENSION'),
  ('_hashlib',
   'c:\\users\\juan\\appdata\\local\\programs\\python\\python37-32\\DLLs\\_hashlib.pyd',
   'EXTENSION'),
  ('_bz2',
   'c:\\users\\juan\\appdata\\local\\programs\\python\\python37-32\\DLLs\\_bz2.pyd',
   'EXTENSION'),
  ('_lzma',
   'c:\\users\\juan\\appdata\\local\\programs\\python\\python37-32\\DLLs\\_lzma.pyd',
   'EXTENSION'),
  ('_socket',
   'c:\\users\\juan\\appdata\\local\\programs\\python\\python37-32\\DLLs\\_socket.pyd',
   'EXTENSION'),
  ('select',
   'c:\\users\\juan\\appdata\\local\\programs\\python\\python37-32\\DLLs\\select.pyd',
   'EXTENSION'),
  ('kivy.properties',
   'c:\\users\\juan\\appdata\\local\\programs\\python\\python37-32\\lib\\site-packages\\kivy\\properties.cp37-win32.pyd',
   'EXTENSION'),
  ('kivy.core.image._img_sdl2',
   'c:\\users\\juan\\appdata\\local\\programs\\python\\python37-32\\lib\\site-packages\\kivy\\core\\image\\_img_sdl2.cp37-win32.pyd',
   'EXTENSION'),
  ('kivy.graphics.texture',
   'c:\\users\\juan\\appdata\\local\\programs\\python\\python37-32\\lib\\site-packages\\kivy\\graphics\\texture.cp37-win32.pyd',
   'EXTENSION'),
  ('kivy.weakproxy',
   'c:\\users\\juan\\appdata\\local\\programs\\python\\python37-32\\lib\\site-packages\\kivy\\weakproxy.cp37-win32.pyd',
   'EXTENSION'),
  ('kivy.core.text.text_layout',
   'c:\\users\\juan\\appdata\\local\\programs\\python\\python37-32\\lib\\site-packages\\kivy\\core\\text\\text_layout.cp37-win32.pyd',
   'EXTENSION'),
  ('kivy.graphics.opengl',
   'c:\\users\\juan\\appdata\\local\\programs\\python\\python37-32\\lib\\site-packages\\kivy\\graphics\\opengl.cp37-win32.pyd',
   'EXTENSION'),
  ('kivy.graphics.context',
   'c:\\users\\juan\\appdata\\local\\programs\\python\\python37-32\\lib\\site-packages\\kivy\\graphics\\context.cp37-win32.pyd',
   'EXTENSION'),
  ('kivy.graphics.cgl',
   'c:\\users\\juan\\appdata\\local\\programs\\python\\python37-32\\lib\\site-packages\\kivy\\graphics\\cgl.cp37-win32.pyd',
   'EXTENSION'),
  ('kivy.graphics.opengl_utils',
   'c:\\users\\juan\\appdata\\local\\programs\\python\\python37-32\\lib\\site-packages\\kivy\\graphics\\opengl_utils.cp37-win32.pyd',
   'EXTENSION'),
  ('kivy.graphics.transformation',
   'c:\\users\\juan\\appdata\\local\\programs\\python\\python37-32\\lib\\site-packages\\kivy\\graphics\\transformation.cp37-win32.pyd',
   'EXTENSION'),
  ('kivy.graphics.scissor_instructions',
   'c:\\users\\juan\\appdata\\local\\programs\\python\\python37-32\\lib\\site-packages\\kivy\\graphics\\scissor_instructions.cp37-win32.pyd',
   'EXTENSION'),
  ('kivy.graphics.fbo',
   'c:\\users\\juan\\appdata\\local\\programs\\python\\python37-32\\lib\\site-packages\\kivy\\graphics\\fbo.cp37-win32.pyd',
   'EXTENSION'),
  ('kivy.graphics.gl_instructions',
   'c:\\users\\juan\\appdata\\local\\programs\\python\\python37-32\\lib\\site-packages\\kivy\\graphics\\gl_instructions.cp37-win32.pyd',
   'EXTENSION'),
  ('kivy.graphics.stencil_instructions',
   'c:\\users\\juan\\appdata\\local\\programs\\python\\python37-32\\lib\\site-packages\\kivy\\graphics\\stencil_instructions.cp37-win32.pyd',
   'EXTENSION'),
  ('kivy.graphics.vertex_instructions',
   'c:\\users\\juan\\appdata\\local\\programs\\python\\python37-32\\lib\\site-packages\\kivy\\graphics\\vertex_instructions.cp37-win32.pyd',
   'EXTENSION'),
  ('kivy.graphics.context_instructions',
   'c:\\users\\juan\\appdata\\local\\programs\\python\\python37-32\\lib\\site-packages\\kivy\\graphics\\context_instructions.cp37-win32.pyd',
   'EXTENSION'),
  ('kivy.graphics.instructions',
   'c:\\users\\juan\\appdata\\local\\programs\\python\\python37-32\\lib\\site-packages\\kivy\\graphics\\instructions.cp37-win32.pyd',
   'EXTENSION'),
  ('kivy._event',
   'c:\\users\\juan\\appdata\\local\\programs\\python\\python37-32\\lib\\site-packages\\kivy\\_event.cp37-win32.pyd',
   'EXTENSION'),
  ('kivy._clock',
   'c:\\users\\juan\\appdata\\local\\programs\\python\\python37-32\\lib\\site-packages\\kivy\\_clock.cp37-win32.pyd',
   'EXTENSION'),
  ('win32file',
   'c:\\users\\juan\\appdata\\local\\programs\\python\\python37-32\\lib\\site-packages\\win32\\win32file.pyd',
   'EXTENSION'),
  ('kivy.graphics.cgl_backend.cgl_mock',
   'c:\\users\\juan\\appdata\\local\\programs\\python\\python37-32\\lib\\site-packages\\kivy\\graphics\\cgl_backend\\cgl_mock.cp37-win32.pyd',
   'EXTENSION'),
  ('kivy.core.window.window_info',
   'c:\\users\\juan\\appdata\\local\\programs\\python\\python37-32\\lib\\site-packages\\kivy\\core\\window\\window_info.cp37-win32.pyd',
   'EXTENSION'),
  ('kivy.graphics.shader',
   'c:\\users\\juan\\appdata\\local\\programs\\python\\python37-32\\lib\\site-packages\\kivy\\graphics\\shader.cp37-win32.pyd',
   'EXTENSION'),
  ('kivy.graphics.vbo',
   'c:\\users\\juan\\appdata\\local\\programs\\python\\python37-32\\lib\\site-packages\\kivy\\graphics\\vbo.cp37-win32.pyd',
   'EXTENSION'),
  ('kivy.lib.gstplayer._gstplayer',
   'c:\\users\\juan\\appdata\\local\\programs\\python\\python37-32\\lib\\site-packages\\kivy\\lib\\gstplayer\\_gstplayer.cp37-win32.pyd',
   'EXTENSION'),
  ('kivy.graphics.cgl_backend.cgl_glew',
   'c:\\users\\juan\\appdata\\local\\programs\\python\\python37-32\\lib\\site-packages\\kivy\\graphics\\cgl_backend\\cgl_glew.cp37-win32.pyd',
   'EXTENSION'),
  ('kivy.graphics.compiler',
   'c:\\users\\juan\\appdata\\local\\programs\\python\\python37-32\\lib\\site-packages\\kivy\\graphics\\compiler.cp37-win32.pyd',
   'EXTENSION'),
  ('kivy.core.window._window_sdl2',
   'c:\\users\\juan\\appdata\\local\\programs\\python\\python37-32\\lib\\site-packages\\kivy\\core\\window\\_window_sdl2.cp37-win32.pyd',
   'EXTENSION'),
  ('kivy.core.audio.audio_sdl2',
   'c:\\users\\juan\\appdata\\local\\programs\\python\\python37-32\\lib\\site-packages\\kivy\\core\\audio\\audio_sdl2.cp37-win32.pyd',
   'EXTENSION'),
  ('kivy.graphics.cgl_backend.cgl_gl',
   'c:\\users\\juan\\appdata\\local\\programs\\python\\python37-32\\lib\\site-packages\\kivy\\graphics\\cgl_backend\\cgl_gl.cp37-win32.pyd',
   'EXTENSION'),
  ('kivy.graphics.vertex',
   'c:\\users\\juan\\appdata\\local\\programs\\python\\python37-32\\lib\\site-packages\\kivy\\graphics\\vertex.cp37-win32.pyd',
   'EXTENSION'),
  ('kivy.graphics.tesselator',
   'c:\\users\\juan\\appdata\\local\\programs\\python\\python37-32\\lib\\site-packages\\kivy\\graphics\\tesselator.cp37-win32.pyd',
   'EXTENSION'),
  ('kivy.graphics.cgl_backend.cgl_debug',
   'c:\\users\\juan\\appdata\\local\\programs\\python\\python37-32\\lib\\site-packages\\kivy\\graphics\\cgl_backend\\cgl_debug.cp37-win32.pyd',
   'EXTENSION'),
  ('kivy.graphics.buffer',
   'c:\\users\\juan\\appdata\\local\\programs\\python\\python37-32\\lib\\site-packages\\kivy\\graphics\\buffer.cp37-win32.pyd',
   'EXTENSION'),
  ('kivy.core.text._text_sdl2',
   'c:\\users\\juan\\appdata\\local\\programs\\python\\python37-32\\lib\\site-packages\\kivy\\core\\text\\_text_sdl2.cp37-win32.pyd',
   'EXTENSION'),
  ('kivy.graphics.cgl_backend.cgl_sdl2',
   'c:\\users\\juan\\appdata\\local\\programs\\python\\python37-32\\lib\\site-packages\\kivy\\graphics\\cgl_backend\\cgl_sdl2.cp37-win32.pyd',
   'EXTENSION'),
  ('kivy.graphics.svg',
   'c:\\users\\juan\\appdata\\local\\programs\\python\\python37-32\\lib\\site-packages\\kivy\\graphics\\svg.cp37-win32.pyd',
   'EXTENSION'),
  ('win32gui',
   'c:\\users\\juan\\appdata\\local\\programs\\python\\python37-32\\lib\\site-packages\\win32\\win32gui.pyd',
   'EXTENSION'),
  ('kivy.core.clipboard._clipboard_sdl2',
   'c:\\users\\juan\\appdata\\local\\programs\\python\\python37-32\\lib\\site-packages\\kivy\\core\\clipboard\\_clipboard_sdl2.cp37-win32.pyd',
   'EXTENSION'),
  ('mfc140u.dll',
   'c:\\users\\juan\\appdata\\local\\programs\\python\\python37-32\\lib\\site-packages\\Pythonwin\\mfc140u.dll',
   'BINARY'),
  ('libcrypto-1_1.dll',
   'c:\\users\\juan\\appdata\\local\\programs\\python\\python37-32\\DLLs\\libcrypto-1_1.dll',
   'BINARY'),
  ('libssl-1_1.dll',
   'c:\\users\\juan\\appdata\\local\\programs\\python\\python37-32\\DLLs\\libssl-1_1.dll',
   'BINARY'),
  ('SDL2_image.dll',
   'c:\\users\\juan\\appdata\\local\\programs\\python\\python37-32\\share\\sdl2\\bin\\sdl2_image.dll',
   'BINARY'),
  ('SDL2.dll',
   'c:\\users\\juan\\appdata\\local\\programs\\python\\python37-32\\share\\sdl2\\bin\\sdl2.dll',
   'BINARY'),
  ('libgstreamer-1.0-0.dll',
   'c:\\users\\juan\\appdata\\local\\programs\\python\\python37-32\\share\\gstreamer\\bin\\libgstreamer-1.0-0.dll',
   'BINARY'),
  ('libgobject-2.0-0.dll',
   'c:\\users\\juan\\appdata\\local\\programs\\python\\python37-32\\share\\gstreamer\\bin\\libgobject-2.0-0.dll',
   'BINARY'),
  ('libglib-2.0-0.dll',
   'c:\\users\\juan\\appdata\\local\\programs\\python\\python37-32\\share\\gstreamer\\bin\\libglib-2.0-0.dll',
   'BINARY'),
  ('glew32.dll',
   'c:\\users\\juan\\appdata\\local\\programs\\python\\python37-32\\share\\glew\\bin\\glew32.dll',
   'BINARY'),
  ('SDL2_mixer.dll',
   'c:\\users\\juan\\appdata\\local\\programs\\python\\python37-32\\share\\sdl2\\bin\\sdl2_mixer.dll',
   'BINARY'),
  ('SDL2_ttf.dll',
   'c:\\users\\juan\\appdata\\local\\programs\\python\\python37-32\\share\\sdl2\\bin\\sdl2_ttf.dll',
   'BINARY'),
  ('libgmodule-2.0-0.dll',
   'c:\\users\\juan\\appdata\\local\\programs\\python\\python37-32\\share\\gstreamer\\bin\\libgmodule-2.0-0.dll',
   'BINARY'),
  ('libwinpthread-1.dll',
   'c:\\users\\juan\\appdata\\local\\programs\\python\\python37-32\\share\\gstreamer\\bin\\libwinpthread-1.dll',
   'BINARY'),
  ('libintl-8.dll',
   'c:\\users\\juan\\appdata\\local\\programs\\python\\python37-32\\share\\gstreamer\\bin\\libintl-8.dll',
   'BINARY'),
  ('libffi-7.dll',
   'c:\\users\\juan\\appdata\\local\\programs\\python\\python37-32\\share\\gstreamer\\bin\\libffi-7.dll',
   'BINARY'),
  ('libfreetype-6.dll',
   'c:\\users\\juan\\appdata\\local\\programs\\python\\python37-32\\share\\sdl2\\bin\\libfreetype-6.dll',
   'BINARY'),
  ('zlib1.dll',
   'c:\\users\\juan\\appdata\\local\\programs\\python\\python37-32\\share\\sdl2\\bin\\zlib1.dll',
   'BINARY'),
  ('base_library.zip',
   'C:\\Users\\Juan\\repos\\calcjp\\build\\calcjp\\base_library.zip',
   'DATA'),
  ('kivy_install\\modules\\monitor.py',
   'c:\\users\\juan\\appdata\\local\\programs\\python\\python37-32\\lib\\site-packages\\kivy\\modules\\monitor.py',
   'DATA'),
  ('docutils\\writers\\odf_odt\\styles.odt',
   'c:\\users\\juan\\appdata\\local\\programs\\python\\python37-32\\lib\\site-packages\\docutils\\writers\\odf_odt\\styles.odt',
   'DATA'),
  ('kivy_install\\data\\keyboards\\qwerty.json',
   'c:\\users\\juan\\appdata\\local\\programs\\python\\python37-32\\lib\\site-packages\\kivy\\data\\keyboards\\qwerty.json',
   'DATA'),
  ('kivy_install\\data\\logo\\kivy-icon-48.png',
   'c:\\users\\juan\\appdata\\local\\programs\\python\\python37-32\\lib\\site-packages\\kivy\\data\\logo\\kivy-icon-48.png',
   'DATA'),
  ('kivy_install\\modules\\__pycache__\\screen.cpython-37.pyc',
   'c:\\users\\juan\\appdata\\local\\programs\\python\\python37-32\\lib\\site-packages\\kivy\\modules\\__pycache__\\screen.cpython-37.pyc',
   'DATA'),
  ('docutils\\writers\\s5_html\\themes\\medium-black\\pretty.css',
   'c:\\users\\juan\\appdata\\local\\programs\\python\\python37-32\\lib\\site-packages\\docutils\\writers\\s5_html\\themes\\medium-black\\pretty.css',
   'DATA'),
  ('kivy_install\\data\\glsl\\header.fs',
   'c:\\users\\juan\\appdata\\local\\programs\\python\\python37-32\\lib\\site-packages\\kivy\\data\\glsl\\header.fs',
   'DATA'),
  ('kivy_install\\modules\\inspector.py',
   'c:\\users\\juan\\appdata\\local\\programs\\python\\python37-32\\lib\\site-packages\\kivy\\modules\\inspector.py',
   'DATA'),
  ('docutils\\writers\\html5_polyglot\\minimal.css',
   'c:\\users\\juan\\appdata\\local\\programs\\python\\python37-32\\lib\\site-packages\\docutils\\writers\\html5_polyglot\\minimal.css',
   'DATA'),
  ('kivy_install\\data\\fonts\\Roboto-Bold.ttf',
   'c:\\users\\juan\\appdata\\local\\programs\\python\\python37-32\\lib\\site-packages\\kivy\\data\\fonts\\Roboto-Bold.ttf',
   'DATA'),
  ('docutils\\parsers\\rst\\include\\isoamsr.txt',
   'c:\\users\\juan\\appdata\\local\\programs\\python\\python37-32\\lib\\site-packages\\docutils\\parsers\\rst\\include\\isoamsr.txt',
   'DATA'),
  ('docutils\\parsers\\rst\\include\\xhtml1-symbol.txt',
   'c:\\users\\juan\\appdata\\local\\programs\\python\\python37-32\\lib\\site-packages\\docutils\\parsers\\rst\\include\\xhtml1-symbol.txt',
   'DATA'),
  ('docutils\\parsers\\rst\\include\\isolat1.txt',
   'c:\\users\\juan\\appdata\\local\\programs\\python\\python37-32\\lib\\site-packages\\docutils\\parsers\\rst\\include\\isolat1.txt',
   'DATA'),
  ('kivy_install\\modules\\__pycache__\\keybinding.cpython-37.pyc',
   'c:\\users\\juan\\appdata\\local\\programs\\python\\python37-32\\lib\\site-packages\\kivy\\modules\\__pycache__\\keybinding.cpython-37.pyc',
   'DATA'),
  ('docutils\\parsers\\rst\\include\\isoamsb.txt',
   'c:\\users\\juan\\appdata\\local\\programs\\python\\python37-32\\lib\\site-packages\\docutils\\parsers\\rst\\include\\isoamsb.txt',
   'DATA'),
  ('docutils\\writers\\s5_html\\themes\\default\\framing.css',
   'c:\\users\\juan\\appdata\\local\\programs\\python\\python37-32\\lib\\site-packages\\docutils\\writers\\s5_html\\themes\\default\\framing.css',
   'DATA'),
  ('docutils\\parsers\\rst\\include\\isopub.txt',
   'c:\\users\\juan\\appdata\\local\\programs\\python\\python37-32\\lib\\site-packages\\docutils\\parsers\\rst\\include\\isopub.txt',
   'DATA'),
  ('docutils\\parsers\\rst\\include\\isogrk2.txt',
   'c:\\users\\juan\\appdata\\local\\programs\\python\\python37-32\\lib\\site-packages\\docutils\\parsers\\rst\\include\\isogrk2.txt',
   'DATA'),
  ('kivy_install\\modules\\__pycache__\\touchring.cpython-37.pyc',
   'c:\\users\\juan\\appdata\\local\\programs\\python\\python37-32\\lib\\site-packages\\kivy\\modules\\__pycache__\\touchring.cpython-37.pyc',
   'DATA'),
  ('docutils\\writers\\s5_html\\themes\\small-white\\framing.css',
   'c:\\users\\juan\\appdata\\local\\programs\\python\\python37-32\\lib\\site-packages\\docutils\\writers\\s5_html\\themes\\small-white\\framing.css',
   'DATA'),
  ('kivy_install\\data\\style.kv',
   'c:\\users\\juan\\appdata\\local\\programs\\python\\python37-32\\lib\\site-packages\\kivy\\data\\style.kv',
   'DATA'),
  ('kivy_install\\data\\logo\\kivy-icon-24.png',
   'c:\\users\\juan\\appdata\\local\\programs\\python\\python37-32\\lib\\site-packages\\kivy\\data\\logo\\kivy-icon-24.png',
   'DATA'),
  ('kivy_install\\data\\logo\\kivy-icon-64.png',
   'c:\\users\\juan\\appdata\\local\\programs\\python\\python37-32\\lib\\site-packages\\kivy\\data\\logo\\kivy-icon-64.png',
   'DATA'),
  ('docutils\\parsers\\rst\\include\\isogrk1.txt',
   'c:\\users\\juan\\appdata\\local\\programs\\python\\python37-32\\lib\\site-packages\\docutils\\parsers\\rst\\include\\isogrk1.txt',
   'DATA'),
  ('kivy_install\\modules\\touchring.py',
   'c:\\users\\juan\\appdata\\local\\programs\\python\\python37-32\\lib\\site-packages\\kivy\\modules\\touchring.py',
   'DATA'),
  ('docutils\\parsers\\rst\\include\\isogrk4-wide.txt',
   'c:\\users\\juan\\appdata\\local\\programs\\python\\python37-32\\lib\\site-packages\\docutils\\parsers\\rst\\include\\isogrk4-wide.txt',
   'DATA'),
  ('kivy_install\\data\\keyboards\\de_CH.json',
   'c:\\users\\juan\\appdata\\local\\programs\\python\\python37-32\\lib\\site-packages\\kivy\\data\\keyboards\\de_CH.json',
   'DATA'),
  ('docutils\\parsers\\rst\\include\\README.txt',
   'c:\\users\\juan\\appdata\\local\\programs\\python\\python37-32\\lib\\site-packages\\docutils\\parsers\\rst\\include\\README.txt',
   'DATA'),
  ('docutils\\parsers\\rst\\include\\isomopf.txt',
   'c:\\users\\juan\\appdata\\local\\programs\\python\\python37-32\\lib\\site-packages\\docutils\\parsers\\rst\\include\\isomopf.txt',
   'DATA'),
  ('kivy_install\\data\\logo\\kivy-icon-512.png',
   'c:\\users\\juan\\appdata\\local\\programs\\python\\python37-32\\lib\\site-packages\\kivy\\data\\logo\\kivy-icon-512.png',
   'DATA'),
  ('docutils\\writers\\html4css1\\template.txt',
   'c:\\users\\juan\\appdata\\local\\programs\\python\\python37-32\\lib\\site-packages\\docutils\\writers\\html4css1\\template.txt',
   'DATA'),
  ('docutils\\parsers\\rst\\include\\mmlalias.txt',
   'c:\\users\\juan\\appdata\\local\\programs\\python\\python37-32\\lib\\site-packages\\docutils\\parsers\\rst\\include\\mmlalias.txt',
   'DATA'),
  ('kivy_install\\data\\images\\cursor.png',
   'c:\\users\\juan\\appdata\\local\\programs\\python\\python37-32\\lib\\site-packages\\kivy\\data\\images\\cursor.png',
   'DATA'),
  ('kivy_install\\modules\\__pycache__\\recorder.cpython-37.pyc',
   'c:\\users\\juan\\appdata\\local\\programs\\python\\python37-32\\lib\\site-packages\\kivy\\modules\\__pycache__\\recorder.cpython-37.pyc',
   'DATA'),
  ('kivy_install\\modules\\joycursor.py',
   'c:\\users\\juan\\appdata\\local\\programs\\python\\python37-32\\lib\\site-packages\\kivy\\modules\\joycursor.py',
   'DATA'),
  ('docutils\\writers\\s5_html\\themes\\big-black\\__base__',
   'c:\\users\\juan\\appdata\\local\\programs\\python\\python37-32\\lib\\site-packages\\docutils\\writers\\s5_html\\themes\\big-black\\__base__',
   'DATA'),
  ('kivy_install\\modules\\__pycache__\\webdebugger.cpython-37.pyc',
   'c:\\users\\juan\\appdata\\local\\programs\\python\\python37-32\\lib\\site-packages\\kivy\\modules\\__pycache__\\webdebugger.cpython-37.pyc',
   'DATA'),
  ('docutils\\parsers\\rst\\include\\isotech.txt',
   'c:\\users\\juan\\appdata\\local\\programs\\python\\python37-32\\lib\\site-packages\\docutils\\parsers\\rst\\include\\isotech.txt',
   'DATA'),
  ('docutils\\writers\\s5_html\\themes\\big-white\\pretty.css',
   'c:\\users\\juan\\appdata\\local\\programs\\python\\python37-32\\lib\\site-packages\\docutils\\writers\\s5_html\\themes\\big-white\\pretty.css',
   'DATA'),
  ('docutils\\writers\\s5_html\\themes\\big-black\\pretty.css',
   'c:\\users\\juan\\appdata\\local\\programs\\python\\python37-32\\lib\\site-packages\\docutils\\writers\\s5_html\\themes\\big-black\\pretty.css',
   'DATA'),
  ('docutils\\writers\\s5_html\\themes\\small-black\\pretty.css',
   'c:\\users\\juan\\appdata\\local\\programs\\python\\python37-32\\lib\\site-packages\\docutils\\writers\\s5_html\\themes\\small-black\\pretty.css',
   'DATA'),
  ('kivy_install\\data\\logo\\kivy-icon-32.png',
   'c:\\users\\juan\\appdata\\local\\programs\\python\\python37-32\\lib\\site-packages\\kivy\\data\\logo\\kivy-icon-32.png',
   'DATA'),
  ('docutils\\parsers\\rst\\include\\isolat2.txt',
   'c:\\users\\juan\\appdata\\local\\programs\\python\\python37-32\\lib\\site-packages\\docutils\\parsers\\rst\\include\\isolat2.txt',
   'DATA'),
  ('docutils\\writers\\s5_html\\themes\\small-black\\__base__',
   'c:\\users\\juan\\appdata\\local\\programs\\python\\python37-32\\lib\\site-packages\\docutils\\writers\\s5_html\\themes\\small-black\\__base__',
   'DATA'),
  ('kivy_install\\data\\images\\testpattern.png',
   'c:\\users\\juan\\appdata\\local\\programs\\python\\python37-32\\lib\\site-packages\\kivy\\data\\images\\testpattern.png',
   'DATA'),
  ('kivy_install\\modules\\keybinding.py',
   'c:\\users\\juan\\appdata\\local\\programs\\python\\python37-32\\lib\\site-packages\\kivy\\modules\\keybinding.py',
   'DATA'),
  ('kivy_install\\data\\logo\\kivy-icon-16.png',
   'c:\\users\\juan\\appdata\\local\\programs\\python\\python37-32\\lib\\site-packages\\kivy\\data\\logo\\kivy-icon-16.png',
   'DATA'),
  ('docutils\\writers\\s5_html\\themes\\default\\iepngfix.htc',
   'c:\\users\\juan\\appdata\\local\\programs\\python\\python37-32\\lib\\site-packages\\docutils\\writers\\s5_html\\themes\\default\\iepngfix.htc',
   'DATA'),
  ('kivy_install\\data\\fonts\\Roboto-BoldItalic.ttf',
   'c:\\users\\juan\\appdata\\local\\programs\\python\\python37-32\\lib\\site-packages\\kivy\\data\\fonts\\Roboto-BoldItalic.ttf',
   'DATA'),
  ('kivy_install\\data\\fonts\\RobotoMono-Regular.ttf',
   'c:\\users\\juan\\appdata\\local\\programs\\python\\python37-32\\lib\\site-packages\\kivy\\data\\fonts\\RobotoMono-Regular.ttf',
   'DATA'),
  ('docutils\\writers\\latex2e\\titlepage.tex',
   'c:\\users\\juan\\appdata\\local\\programs\\python\\python37-32\\lib\\site-packages\\docutils\\writers\\latex2e\\titlepage.tex',
   'DATA'),
  ('docutils\\writers\\pep_html\\template.txt',
   'c:\\users\\juan\\appdata\\local\\programs\\python\\python37-32\\lib\\site-packages\\docutils\\writers\\pep_html\\template.txt',
   'DATA'),
  ('docutils\\writers\\s5_html\\themes\\big-white\\framing.css',
   'c:\\users\\juan\\appdata\\local\\programs\\python\\python37-32\\lib\\site-packages\\docutils\\writers\\s5_html\\themes\\big-white\\framing.css',
   'DATA'),
  ('kivy_install\\data\\keyboards\\fr_CH.json',
   'c:\\users\\juan\\appdata\\local\\programs\\python\\python37-32\\lib\\site-packages\\kivy\\data\\keyboards\\fr_CH.json',
   'DATA'),
  ('docutils\\writers\\s5_html\\themes\\default\\blank.gif',
   'c:\\users\\juan\\appdata\\local\\programs\\python\\python37-32\\lib\\site-packages\\docutils\\writers\\s5_html\\themes\\default\\blank.gif',
   'DATA'),
  ('docutils\\parsers\\rst\\include\\isoamso.txt',
   'c:\\users\\juan\\appdata\\local\\programs\\python\\python37-32\\lib\\site-packages\\docutils\\parsers\\rst\\include\\isoamso.txt',
   'DATA'),
  ('docutils\\writers\\s5_html\\themes\\default\\s5-core.css',
   'c:\\users\\juan\\appdata\\local\\programs\\python\\python37-32\\lib\\site-packages\\docutils\\writers\\s5_html\\themes\\default\\s5-core.css',
   'DATA'),
  ('docutils\\parsers\\rst\\include\\isonum.txt',
   'c:\\users\\juan\\appdata\\local\\programs\\python\\python37-32\\lib\\site-packages\\docutils\\parsers\\rst\\include\\isonum.txt',
   'DATA'),
  ('kivy_install\\modules\\__pycache__\\_webdebugger.cpython-37.pyc',
   'c:\\users\\juan\\appdata\\local\\programs\\python\\python37-32\\lib\\site-packages\\kivy\\modules\\__pycache__\\_webdebugger.cpython-37.pyc',
   'DATA'),
  ('docutils\\parsers\\rst\\include\\isomscr-wide.txt',
   'c:\\users\\juan\\appdata\\local\\programs\\python\\python37-32\\lib\\site-packages\\docutils\\parsers\\rst\\include\\isomscr-wide.txt',
   'DATA'),
  ('docutils\\writers\\s5_html\\themes\\medium-black\\__base__',
   'c:\\users\\juan\\appdata\\local\\programs\\python\\python37-32\\lib\\site-packages\\docutils\\writers\\s5_html\\themes\\medium-black\\__base__',
   'DATA'),
  ('kivy_install\\modules\\webdebugger.py',
   'c:\\users\\juan\\appdata\\local\\programs\\python\\python37-32\\lib\\site-packages\\kivy\\modules\\webdebugger.py',
   'DATA'),
  ('kivy_install\\data\\images\\image-loading.gif',
   'c:\\users\\juan\\appdata\\local\\programs\\python\\python37-32\\lib\\site-packages\\kivy\\data\\images\\image-loading.gif',
   'DATA'),
  ('kivy_install\\data\\images\\defaulttheme-0.png',
   'c:\\users\\juan\\appdata\\local\\programs\\python\\python37-32\\lib\\site-packages\\kivy\\data\\images\\defaulttheme-0.png',
   'DATA'),
  ('docutils\\writers\\s5_html\\themes\\medium-white\\framing.css',
   'c:\\users\\juan\\appdata\\local\\programs\\python\\python37-32\\lib\\site-packages\\docutils\\writers\\s5_html\\themes\\medium-white\\framing.css',
   'DATA'),
  ('docutils\\parsers\\rst\\include\\isoamsc.txt',
   'c:\\users\\juan\\appdata\\local\\programs\\python\\python37-32\\lib\\site-packages\\docutils\\parsers\\rst\\include\\isoamsc.txt',
   'DATA'),
  ('kivy_install\\modules\\showborder.py',
   'c:\\users\\juan\\appdata\\local\\programs\\python\\python37-32\\lib\\site-packages\\kivy\\modules\\showborder.py',
   'DATA'),
  ('docutils\\parsers\\rst\\include\\isogrk3.txt',
   'c:\\users\\juan\\appdata\\local\\programs\\python\\python37-32\\lib\\site-packages\\docutils\\parsers\\rst\\include\\isogrk3.txt',
   'DATA'),
  ('docutils\\parsers\\rst\\include\\isoamsa.txt',
   'c:\\users\\juan\\appdata\\local\\programs\\python\\python37-32\\lib\\site-packages\\docutils\\parsers\\rst\\include\\isoamsa.txt',
   'DATA'),
  ('docutils\\writers\\s5_html\\themes\\default\\slides.js',
   'c:\\users\\juan\\appdata\\local\\programs\\python\\python37-32\\lib\\site-packages\\docutils\\writers\\s5_html\\themes\\default\\slides.js',
   'DATA'),
  ('docutils\\parsers\\rst\\include\\mmlextra.txt',
   'c:\\users\\juan\\appdata\\local\\programs\\python\\python37-32\\lib\\site-packages\\docutils\\parsers\\rst\\include\\mmlextra.txt',
   'DATA'),
  ('docutils\\writers\\s5_html\\themes\\default\\opera.css',
   'c:\\users\\juan\\appdata\\local\\programs\\python\\python37-32\\lib\\site-packages\\docutils\\writers\\s5_html\\themes\\default\\opera.css',
   'DATA'),
  ('docutils\\writers\\s5_html\\themes\\medium-white\\pretty.css',
   'c:\\users\\juan\\appdata\\local\\programs\\python\\python37-32\\lib\\site-packages\\docutils\\writers\\s5_html\\themes\\medium-white\\pretty.css',
   'DATA'),
  ('kivy_install\\modules\\__pycache__\\inspector.cpython-37.pyc',
   'c:\\users\\juan\\appdata\\local\\programs\\python\\python37-32\\lib\\site-packages\\kivy\\modules\\__pycache__\\inspector.cpython-37.pyc',
   'DATA'),
  ('kivy_install\\modules\\__pycache__\\console.cpython-37.pyc',
   'c:\\users\\juan\\appdata\\local\\programs\\python\\python37-32\\lib\\site-packages\\kivy\\modules\\__pycache__\\console.cpython-37.pyc',
   'DATA'),
  ('Include\\pyconfig.h',
   'c:\\users\\juan\\appdata\\local\\programs\\python\\python37-32\\Include\\pyconfig.h',
   'DATA'),
  ('kivy_install\\data\\logo\\kivy-icon-256.png',
   'c:\\users\\juan\\appdata\\local\\programs\\python\\python37-32\\lib\\site-packages\\kivy\\data\\logo\\kivy-icon-256.png',
   'DATA'),
  ('kivy_install\\modules\\recorder.py',
   'c:\\users\\juan\\appdata\\local\\programs\\python\\python37-32\\lib\\site-packages\\kivy\\modules\\recorder.py',
   'DATA'),
  ('docutils\\writers\\s5_html\\themes\\default\\slides.css',
   'c:\\users\\juan\\appdata\\local\\programs\\python\\python37-32\\lib\\site-packages\\docutils\\writers\\s5_html\\themes\\default\\slides.css',
   'DATA'),
  ('docutils\\parsers\\rst\\include\\isomopf-wide.txt',
   'c:\\users\\juan\\appdata\\local\\programs\\python\\python37-32\\lib\\site-packages\\docutils\\parsers\\rst\\include\\isomopf-wide.txt',
   'DATA'),
  ('kivy_install\\data\\fonts\\Roboto-Regular.ttf',
   'c:\\users\\juan\\appdata\\local\\programs\\python\\python37-32\\lib\\site-packages\\kivy\\data\\fonts\\Roboto-Regular.ttf',
   'DATA'),
  ('kivy_install\\data\\keyboards\\qwertz.json',
   'c:\\users\\juan\\appdata\\local\\programs\\python\\python37-32\\lib\\site-packages\\kivy\\data\\keyboards\\qwertz.json',
   'DATA'),
  ('kivy_install\\modules\\_webdebugger.py',
   'c:\\users\\juan\\appdata\\local\\programs\\python\\python37-32\\lib\\site-packages\\kivy\\modules\\_webdebugger.py',
   'DATA'),
  ('kivy_install\\modules\\cursor.py',
   'c:\\users\\juan\\appdata\\local\\programs\\python\\python37-32\\lib\\site-packages\\kivy\\modules\\cursor.py',
   'DATA'),
  ('kivy_install\\modules\\__pycache__\\joycursor.cpython-37.pyc',
   'c:\\users\\juan\\appdata\\local\\programs\\python\\python37-32\\lib\\site-packages\\kivy\\modules\\__pycache__\\joycursor.cpython-37.pyc',
   'DATA'),
  ('kivy_install\\modules\\__pycache__\\cursor.cpython-37.pyc',
   'c:\\users\\juan\\appdata\\local\\programs\\python\\python37-32\\lib\\site-packages\\kivy\\modules\\__pycache__\\cursor.cpython-37.pyc',
   'DATA'),
  ('docutils\\parsers\\rst\\include\\isoamsn.txt',
   'c:\\users\\juan\\appdata\\local\\programs\\python\\python37-32\\lib\\site-packages\\docutils\\parsers\\rst\\include\\isoamsn.txt',
   'DATA'),
  ('kivy_install\\data\\keyboards\\en_US.json',
   'c:\\users\\juan\\appdata\\local\\programs\\python\\python37-32\\lib\\site-packages\\kivy\\data\\keyboards\\en_US.json',
   'DATA'),
  ('kivy_install\\data\\images\\background.jpg',
   'c:\\users\\juan\\appdata\\local\\programs\\python\\python37-32\\lib\\site-packages\\kivy\\data\\images\\background.jpg',
   'DATA'),
  ('kivy_install\\data\\settings_kivy.json',
   'c:\\users\\juan\\appdata\\local\\programs\\python\\python37-32\\lib\\site-packages\\kivy\\data\\settings_kivy.json',
   'DATA'),
  ('kivy_install\\modules\\console.py',
   'c:\\users\\juan\\appdata\\local\\programs\\python\\python37-32\\lib\\site-packages\\kivy\\modules\\console.py',
   'DATA'),
  ('docutils\\writers\\s5_html\\themes\\big-black\\framing.css',
   'c:\\users\\juan\\appdata\\local\\programs\\python\\python37-32\\lib\\site-packages\\docutils\\writers\\s5_html\\themes\\big-black\\framing.css',
   'DATA'),
  ('docutils\\writers\\s5_html\\themes\\default\\outline.css',
   'c:\\users\\juan\\appdata\\local\\programs\\python\\python37-32\\lib\\site-packages\\docutils\\writers\\s5_html\\themes\\default\\outline.css',
   'DATA'),
  ('kivy_install\\data\\glsl\\default.png',
   'c:\\users\\juan\\appdata\\local\\programs\\python\\python37-32\\lib\\site-packages\\kivy\\data\\glsl\\default.png',
   'DATA'),
  ('docutils\\parsers\\rst\\include\\isocyr2.txt',
   'c:\\users\\juan\\appdata\\local\\programs\\python\\python37-32\\lib\\site-packages\\docutils\\parsers\\rst\\include\\isocyr2.txt',
   'DATA'),
  ('kivy_install\\data\\glsl\\header.vs',
   'c:\\users\\juan\\appdata\\local\\programs\\python\\python37-32\\lib\\site-packages\\kivy\\data\\glsl\\header.vs',
   'DATA'),
  ('kivy_install\\modules\\__pycache__\\monitor.cpython-37.pyc',
   'c:\\users\\juan\\appdata\\local\\programs\\python\\python37-32\\lib\\site-packages\\kivy\\modules\\__pycache__\\monitor.cpython-37.pyc',
   'DATA'),
  ('docutils\\parsers\\rst\\include\\isomfrk-wide.txt',
   'c:\\users\\juan\\appdata\\local\\programs\\python\\python37-32\\lib\\site-packages\\docutils\\parsers\\rst\\include\\isomfrk-wide.txt',
   'DATA'),
  ('kivy_install\\data\\glsl\\default.vs',
   'c:\\users\\juan\\appdata\\local\\programs\\python\\python37-32\\lib\\site-packages\\kivy\\data\\glsl\\default.vs',
   'DATA'),
  ('kivy_install\\data\\glsl\\default.fs',
   'c:\\users\\juan\\appdata\\local\\programs\\python\\python37-32\\lib\\site-packages\\kivy\\data\\glsl\\default.fs',
   'DATA'),
  ('kivy_install\\data\\images\\defaulttheme.atlas',
   'c:\\users\\juan\\appdata\\local\\programs\\python\\python37-32\\lib\\site-packages\\kivy\\data\\images\\defaulttheme.atlas',
   'DATA'),
  ('docutils\\writers\\latex2e\\xelatex.tex',
   'c:\\users\\juan\\appdata\\local\\programs\\python\\python37-32\\lib\\site-packages\\docutils\\writers\\latex2e\\xelatex.tex',
   'DATA'),
  ('kivy_install\\modules\\screen.py',
   'c:\\users\\juan\\appdata\\local\\programs\\python\\python37-32\\lib\\site-packages\\kivy\\modules\\screen.py',
   'DATA'),
  ('kivy_install\\data\\images\\defaultshape.png',
   'c:\\users\\juan\\appdata\\local\\programs\\python\\python37-32\\lib\\site-packages\\kivy\\data\\images\\defaultshape.png',
   'DATA'),
  ('docutils\\writers\\pep_html\\pep.css',
   'c:\\users\\juan\\appdata\\local\\programs\\python\\python37-32\\lib\\site-packages\\docutils\\writers\\pep_html\\pep.css',
   'DATA'),
  ('docutils\\parsers\\rst\\include\\isobox.txt',
   'c:\\users\\juan\\appdata\\local\\programs\\python\\python37-32\\lib\\site-packages\\docutils\\parsers\\rst\\include\\isobox.txt',
   'DATA'),
  ('docutils\\parsers\\rst\\include\\xhtml1-special.txt',
   'c:\\users\\juan\\appdata\\local\\programs\\python\\python37-32\\lib\\site-packages\\docutils\\parsers\\rst\\include\\xhtml1-special.txt',
   'DATA'),
  ('docutils\\writers\\s5_html\\themes\\default\\print.css',
   'c:\\users\\juan\\appdata\\local\\programs\\python\\python37-32\\lib\\site-packages\\docutils\\writers\\s5_html\\themes\\default\\print.css',
   'DATA'),
  ('docutils\\parsers\\rst\\include\\s5defs.txt',
   'c:\\users\\juan\\appdata\\local\\programs\\python\\python37-32\\lib\\site-packages\\docutils\\parsers\\rst\\include\\s5defs.txt',
   'DATA'),
  ('kivy_install\\modules\\__pycache__\\__init__.cpython-37.pyc',
   'c:\\users\\juan\\appdata\\local\\programs\\python\\python37-32\\lib\\site-packages\\kivy\\modules\\__pycache__\\__init__.cpython-37.pyc',
   'DATA'),
  ('docutils\\parsers\\rst\\include\\xhtml1-lat1.txt',
   'c:\\users\\juan\\appdata\\local\\programs\\python\\python37-32\\lib\\site-packages\\docutils\\parsers\\rst\\include\\xhtml1-lat1.txt',
   'DATA'),
  ('docutils\\writers\\html4css1\\html4css1.css',
   'c:\\users\\juan\\appdata\\local\\programs\\python\\python37-32\\lib\\site-packages\\docutils\\writers\\html4css1\\html4css1.css',
   'DATA'),
  ('kivy_install\\data\\keyboards\\azerty.json',
   'c:\\users\\juan\\appdata\\local\\programs\\python\\python37-32\\lib\\site-packages\\kivy\\data\\keyboards\\azerty.json',
   'DATA'),
  ('docutils\\parsers\\rst\\include\\isodia.txt',
   'c:\\users\\juan\\appdata\\local\\programs\\python\\python37-32\\lib\\site-packages\\docutils\\parsers\\rst\\include\\isodia.txt',
   'DATA'),
  ('docutils\\parsers\\rst\\include\\isogrk4.txt',
   'c:\\users\\juan\\appdata\\local\\programs\\python\\python37-32\\lib\\site-packages\\docutils\\parsers\\rst\\include\\isogrk4.txt',
   'DATA'),
  ('kivy_install\\modules\\__pycache__\\showborder.cpython-37.pyc',
   'c:\\users\\juan\\appdata\\local\\programs\\python\\python37-32\\lib\\site-packages\\kivy\\modules\\__pycache__\\showborder.cpython-37.pyc',
   'DATA'),
  ('docutils\\parsers\\rst\\include\\isocyr1.txt',
   'c:\\users\\juan\\appdata\\local\\programs\\python\\python37-32\\lib\\site-packages\\docutils\\parsers\\rst\\include\\isocyr1.txt',
   'DATA'),
  ('docutils\\writers\\s5_html\\themes\\small-white\\pretty.css',
   'c:\\users\\juan\\appdata\\local\\programs\\python\\python37-32\\lib\\site-packages\\docutils\\writers\\s5_html\\themes\\small-white\\pretty.css',
   'DATA'),
  ('docutils\\writers\\latex2e\\default.tex',
   'c:\\users\\juan\\appdata\\local\\programs\\python\\python37-32\\lib\\site-packages\\docutils\\writers\\latex2e\\default.tex',
   'DATA'),
  ('docutils\\writers\\s5_html\\themes\\README.txt',
   'c:\\users\\juan\\appdata\\local\\programs\\python\\python37-32\\lib\\site-packages\\docutils\\writers\\s5_html\\themes\\README.txt',
   'DATA'),
  ('kivy_install\\data\\fonts\\Roboto-Italic.ttf',
   'c:\\users\\juan\\appdata\\local\\programs\\python\\python37-32\\lib\\site-packages\\kivy\\data\\fonts\\Roboto-Italic.ttf',
   'DATA'),
  ('docutils\\writers\\html5_polyglot\\plain.css',
   'c:\\users\\juan\\appdata\\local\\programs\\python\\python37-32\\lib\\site-packages\\docutils\\writers\\html5_polyglot\\plain.css',
   'DATA'),
  ('docutils\\parsers\\rst\\include\\isomscr.txt',
   'c:\\users\\juan\\appdata\\local\\programs\\python\\python37-32\\lib\\site-packages\\docutils\\parsers\\rst\\include\\isomscr.txt',
   'DATA'),
  ('docutils\\parsers\\rst\\include\\mmlextra-wide.txt',
   'c:\\users\\juan\\appdata\\local\\programs\\python\\python37-32\\lib\\site-packages\\docutils\\parsers\\rst\\include\\mmlextra-wide.txt',
   'DATA'),
  ('kivy_install\\data\\keyboards\\de.json',
   'c:\\users\\juan\\appdata\\local\\programs\\python\\python37-32\\lib\\site-packages\\kivy\\data\\keyboards\\de.json',
   'DATA'),
  ('kivy_install\\modules\\__init__.py',
   'c:\\users\\juan\\appdata\\local\\programs\\python\\python37-32\\lib\\site-packages\\kivy\\modules\\__init__.py',
   'DATA'),
  ('docutils\\writers\\s5_html\\themes\\default\\pretty.css',
   'c:\\users\\juan\\appdata\\local\\programs\\python\\python37-32\\lib\\site-packages\\docutils\\writers\\s5_html\\themes\\default\\pretty.css',
   'DATA'),
  ('kivy_install\\data\\fonts\\DejaVuSans.ttf',
   'c:\\users\\juan\\appdata\\local\\programs\\python\\python37-32\\lib\\site-packages\\kivy\\data\\fonts\\DejaVuSans.ttf',
   'DATA'),
  ('docutils\\writers\\html5_polyglot\\template.txt',
   'c:\\users\\juan\\appdata\\local\\programs\\python\\python37-32\\lib\\site-packages\\docutils\\writers\\html5_polyglot\\template.txt',
   'DATA'),
  ('kivy_install\\data\\logo\\kivy-icon-128.png',
   'c:\\users\\juan\\appdata\\local\\programs\\python\\python37-32\\lib\\site-packages\\kivy\\data\\logo\\kivy-icon-128.png',
   'DATA'),
  ('docutils\\writers\\html5_polyglot\\math.css',
   'c:\\users\\juan\\appdata\\local\\programs\\python\\python37-32\\lib\\site-packages\\docutils\\writers\\html5_polyglot\\math.css',
   'DATA'),
  ('docutils\\parsers\\rst\\include\\isomfrk.txt',
   'c:\\users\\juan\\appdata\\local\\programs\\python\\python37-32\\lib\\site-packages\\docutils\\parsers\\rst\\include\\isomfrk.txt',
   'DATA')],)
