('C:\\Users\\Juan\\repos\\calcjp',
 None,
 [],
 'DATA',
 [('calcjp.kv', 'C:\\Users\\Juan\\repos\\calcjp\\calcjp.kv', 'DATA'),
  ('calcjp.py', 'C:\\Users\\Juan\\repos\\calcjp\\calcjp.py', 'DATA'),
  ('calcjp.spec', 'C:\\Users\\Juan\\repos\\calcjp\\calcjp.spec', 'DATA'),
  ('README.md', 'C:\\Users\\Juan\\repos\\calcjp\\README.md', 'DATA'),
  ('__pycache__\\calcjp.cpython-37.pyc',
   'C:\\Users\\Juan\\repos\\calcjp\\__pycache__\\calcjp.cpython-37.pyc',
   'DATA'),
  ('pngs\\0.png', 'C:\\Users\\Juan\\repos\\calcjp\\pngs\\0.png', 'DATA'),
  ('pngs\\1.png', 'C:\\Users\\Juan\\repos\\calcjp\\pngs\\1.png', 'DATA'),
  ('pngs\\2.png', 'C:\\Users\\Juan\\repos\\calcjp\\pngs\\2.png', 'DATA'),
  ('pngs\\3.png', 'C:\\Users\\Juan\\repos\\calcjp\\pngs\\3.png', 'DATA'),
  ('pngs\\4.png', 'C:\\Users\\Juan\\repos\\calcjp\\pngs\\4.png', 'DATA'),
  ('pngs\\5.png', 'C:\\Users\\Juan\\repos\\calcjp\\pngs\\5.png', 'DATA'),
  ('pngs\\6.png', 'C:\\Users\\Juan\\repos\\calcjp\\pngs\\6.png', 'DATA'),
  ('pngs\\7.png', 'C:\\Users\\Juan\\repos\\calcjp\\pngs\\7.png', 'DATA'),
  ('pngs\\8.png', 'C:\\Users\\Juan\\repos\\calcjp\\pngs\\8.png', 'DATA'),
  ('pngs\\9.png', 'C:\\Users\\Juan\\repos\\calcjp\\pngs\\9.png', 'DATA'),
  ('pngs\\AC.png', 'C:\\Users\\Juan\\repos\\calcjp\\pngs\\AC.png', 'DATA'),
  ('pngs\\by.png', 'C:\\Users\\Juan\\repos\\calcjp\\pngs\\by.png', 'DATA'),
  ('pngs\\c.png', 'C:\\Users\\Juan\\repos\\calcjp\\pngs\\c.png', 'DATA'),
  ('pngs\\dot.png', 'C:\\Users\\Juan\\repos\\calcjp\\pngs\\dot.png', 'DATA'),
  ('pngs\\is.png', 'C:\\Users\\Juan\\repos\\calcjp\\pngs\\is.png', 'DATA'),
  ('pngs\\logo.png', 'C:\\Users\\Juan\\repos\\calcjp\\pngs\\logo.png', 'DATA'),
  ('pngs\\minus.png',
   'C:\\Users\\Juan\\repos\\calcjp\\pngs\\minus.png',
   'DATA'),
  ('pngs\\plus.png', 'C:\\Users\\Juan\\repos\\calcjp\\pngs\\plus.png', 'DATA'),
  ('pngs\\times.png',
   'C:\\Users\\Juan\\repos\\calcjp\\pngs\\times.png',
   'DATA'),
  ('dist\\calcjp\\0.png',
   'C:\\Users\\Juan\\repos\\calcjp\\dist\\calcjp\\0.png',
   'DATA'),
  ('dist\\calcjp\\1.png',
   'C:\\Users\\Juan\\repos\\calcjp\\dist\\calcjp\\1.png',
   'DATA'),
  ('dist\\calcjp\\2.png',
   'C:\\Users\\Juan\\repos\\calcjp\\dist\\calcjp\\2.png',
   'DATA'),
  ('dist\\calcjp\\3.png',
   'C:\\Users\\Juan\\repos\\calcjp\\dist\\calcjp\\3.png',
   'DATA'),
  ('dist\\calcjp\\4.png',
   'C:\\Users\\Juan\\repos\\calcjp\\dist\\calcjp\\4.png',
   'DATA'),
  ('dist\\calcjp\\5.png',
   'C:\\Users\\Juan\\repos\\calcjp\\dist\\calcjp\\5.png',
   'DATA'),
  ('dist\\calcjp\\6.png',
   'C:\\Users\\Juan\\repos\\calcjp\\dist\\calcjp\\6.png',
   'DATA'),
  ('dist\\calcjp\\7.png',
   'C:\\Users\\Juan\\repos\\calcjp\\dist\\calcjp\\7.png',
   'DATA'),
  ('dist\\calcjp\\8.png',
   'C:\\Users\\Juan\\repos\\calcjp\\dist\\calcjp\\8.png',
   'DATA'),
  ('dist\\calcjp\\9.png',
   'C:\\Users\\Juan\\repos\\calcjp\\dist\\calcjp\\9.png',
   'DATA'),
  ('dist\\calcjp\\AC.png',
   'C:\\Users\\Juan\\repos\\calcjp\\dist\\calcjp\\AC.png',
   'DATA'),
  ('dist\\calcjp\\base_library.zip',
   'C:\\Users\\Juan\\repos\\calcjp\\dist\\calcjp\\base_library.zip',
   'DATA'),
  ('dist\\calcjp\\by.png',
   'C:\\Users\\Juan\\repos\\calcjp\\dist\\calcjp\\by.png',
   'DATA'),
  ('dist\\calcjp\\c.png',
   'C:\\Users\\Juan\\repos\\calcjp\\dist\\calcjp\\c.png',
   'DATA'),
  ('dist\\calcjp\\calcjp.exe',
   'C:\\Users\\Juan\\repos\\calcjp\\dist\\calcjp\\calcjp.exe',
   'DATA'),
  ('dist\\calcjp\\calcjp.exe.manifest',
   'C:\\Users\\Juan\\repos\\calcjp\\dist\\calcjp\\calcjp.exe.manifest',
   'DATA'),
  ('dist\\calcjp\\dot.png',
   'C:\\Users\\Juan\\repos\\calcjp\\dist\\calcjp\\dot.png',
   'DATA'),
  ('dist\\calcjp\\glew32.dll',
   'C:\\Users\\Juan\\repos\\calcjp\\dist\\calcjp\\glew32.dll',
   'DATA'),
  ('dist\\calcjp\\is.png',
   'C:\\Users\\Juan\\repos\\calcjp\\dist\\calcjp\\is.png',
   'DATA'),
  ('dist\\calcjp\\libcrypto-1_1.dll',
   'C:\\Users\\Juan\\repos\\calcjp\\dist\\calcjp\\libcrypto-1_1.dll',
   'DATA'),
  ('dist\\calcjp\\libffi-7.dll',
   'C:\\Users\\Juan\\repos\\calcjp\\dist\\calcjp\\libffi-7.dll',
   'DATA'),
  ('dist\\calcjp\\libfreetype-6.dll',
   'C:\\Users\\Juan\\repos\\calcjp\\dist\\calcjp\\libfreetype-6.dll',
   'DATA'),
  ('dist\\calcjp\\libglib-2.0-0.dll',
   'C:\\Users\\Juan\\repos\\calcjp\\dist\\calcjp\\libglib-2.0-0.dll',
   'DATA'),
  ('dist\\calcjp\\libgmodule-2.0-0.dll',
   'C:\\Users\\Juan\\repos\\calcjp\\dist\\calcjp\\libgmodule-2.0-0.dll',
   'DATA'),
  ('dist\\calcjp\\libgobject-2.0-0.dll',
   'C:\\Users\\Juan\\repos\\calcjp\\dist\\calcjp\\libgobject-2.0-0.dll',
   'DATA'),
  ('dist\\calcjp\\libgstreamer-1.0-0.dll',
   'C:\\Users\\Juan\\repos\\calcjp\\dist\\calcjp\\libgstreamer-1.0-0.dll',
   'DATA'),
  ('dist\\calcjp\\libintl-8.dll',
   'C:\\Users\\Juan\\repos\\calcjp\\dist\\calcjp\\libintl-8.dll',
   'DATA'),
  ('dist\\calcjp\\libssl-1_1.dll',
   'C:\\Users\\Juan\\repos\\calcjp\\dist\\calcjp\\libssl-1_1.dll',
   'DATA'),
  ('dist\\calcjp\\libwinpthread-1.dll',
   'C:\\Users\\Juan\\repos\\calcjp\\dist\\calcjp\\libwinpthread-1.dll',
   'DATA'),
  ('dist\\calcjp\\logo.png',
   'C:\\Users\\Juan\\repos\\calcjp\\dist\\calcjp\\logo.png',
   'DATA'),
  ('dist\\calcjp\\mfc140u.dll',
   'C:\\Users\\Juan\\repos\\calcjp\\dist\\calcjp\\mfc140u.dll',
   'DATA'),
  ('dist\\calcjp\\minus.png',
   'C:\\Users\\Juan\\repos\\calcjp\\dist\\calcjp\\minus.png',
   'DATA'),
  ('dist\\calcjp\\plus.png',
   'C:\\Users\\Juan\\repos\\calcjp\\dist\\calcjp\\plus.png',
   'DATA'),
  ('dist\\calcjp\\pyexpat.pyd',
   'C:\\Users\\Juan\\repos\\calcjp\\dist\\calcjp\\pyexpat.pyd',
   'DATA'),
  ('dist\\calcjp\\python37.dll',
   'C:\\Users\\Juan\\repos\\calcjp\\dist\\calcjp\\python37.dll',
   'DATA'),
  ('dist\\calcjp\\pythoncom37.dll',
   'C:\\Users\\Juan\\repos\\calcjp\\dist\\calcjp\\pythoncom37.dll',
   'DATA'),
  ('dist\\calcjp\\pywintypes37.dll',
   'C:\\Users\\Juan\\repos\\calcjp\\dist\\calcjp\\pywintypes37.dll',
   'DATA'),
  ('dist\\calcjp\\SDL2.dll',
   'C:\\Users\\Juan\\repos\\calcjp\\dist\\calcjp\\SDL2.dll',
   'DATA'),
  ('dist\\calcjp\\SDL2_image.dll',
   'C:\\Users\\Juan\\repos\\calcjp\\dist\\calcjp\\SDL2_image.dll',
   'DATA'),
  ('dist\\calcjp\\SDL2_mixer.dll',
   'C:\\Users\\Juan\\repos\\calcjp\\dist\\calcjp\\SDL2_mixer.dll',
   'DATA'),
  ('dist\\calcjp\\SDL2_ttf.dll',
   'C:\\Users\\Juan\\repos\\calcjp\\dist\\calcjp\\SDL2_ttf.dll',
   'DATA'),
  ('dist\\calcjp\\select.pyd',
   'C:\\Users\\Juan\\repos\\calcjp\\dist\\calcjp\\select.pyd',
   'DATA'),
  ('dist\\calcjp\\times.png',
   'C:\\Users\\Juan\\repos\\calcjp\\dist\\calcjp\\times.png',
   'DATA'),
  ('dist\\calcjp\\unicodedata.pyd',
   'C:\\Users\\Juan\\repos\\calcjp\\dist\\calcjp\\unicodedata.pyd',
   'DATA'),
  ('dist\\calcjp\\VCRUNTIME140.dll',
   'C:\\Users\\Juan\\repos\\calcjp\\dist\\calcjp\\VCRUNTIME140.dll',
   'DATA'),
  ('dist\\calcjp\\win32api.pyd',
   'C:\\Users\\Juan\\repos\\calcjp\\dist\\calcjp\\win32api.pyd',
   'DATA'),
  ('dist\\calcjp\\win32file.pyd',
   'C:\\Users\\Juan\\repos\\calcjp\\dist\\calcjp\\win32file.pyd',
   'DATA'),
  ('dist\\calcjp\\win32gui.pyd',
   'C:\\Users\\Juan\\repos\\calcjp\\dist\\calcjp\\win32gui.pyd',
   'DATA'),
  ('dist\\calcjp\\win32trace.pyd',
   'C:\\Users\\Juan\\repos\\calcjp\\dist\\calcjp\\win32trace.pyd',
   'DATA'),
  ('dist\\calcjp\\win32ui.pyd',
   'C:\\Users\\Juan\\repos\\calcjp\\dist\\calcjp\\win32ui.pyd',
   'DATA'),
  ('dist\\calcjp\\win32wnet.pyd',
   'C:\\Users\\Juan\\repos\\calcjp\\dist\\calcjp\\win32wnet.pyd',
   'DATA'),
  ('dist\\calcjp\\zlib1.dll',
   'C:\\Users\\Juan\\repos\\calcjp\\dist\\calcjp\\zlib1.dll',
   'DATA'),
  ('dist\\calcjp\\_bz2.pyd',
   'C:\\Users\\Juan\\repos\\calcjp\\dist\\calcjp\\_bz2.pyd',
   'DATA'),
  ('dist\\calcjp\\_ctypes.pyd',
   'C:\\Users\\Juan\\repos\\calcjp\\dist\\calcjp\\_ctypes.pyd',
   'DATA'),
  ('dist\\calcjp\\_decimal.pyd',
   'C:\\Users\\Juan\\repos\\calcjp\\dist\\calcjp\\_decimal.pyd',
   'DATA'),
  ('dist\\calcjp\\_elementtree.pyd',
   'C:\\Users\\Juan\\repos\\calcjp\\dist\\calcjp\\_elementtree.pyd',
   'DATA'),
  ('dist\\calcjp\\_hashlib.pyd',
   'C:\\Users\\Juan\\repos\\calcjp\\dist\\calcjp\\_hashlib.pyd',
   'DATA'),
  ('dist\\calcjp\\_lzma.pyd',
   'C:\\Users\\Juan\\repos\\calcjp\\dist\\calcjp\\_lzma.pyd',
   'DATA'),
  ('dist\\calcjp\\_multiprocessing.pyd',
   'C:\\Users\\Juan\\repos\\calcjp\\dist\\calcjp\\_multiprocessing.pyd',
   'DATA'),
  ('dist\\calcjp\\_queue.pyd',
   'C:\\Users\\Juan\\repos\\calcjp\\dist\\calcjp\\_queue.pyd',
   'DATA'),
  ('dist\\calcjp\\_socket.pyd',
   'C:\\Users\\Juan\\repos\\calcjp\\dist\\calcjp\\_socket.pyd',
   'DATA'),
  ('dist\\calcjp\\_ssl.pyd',
   'C:\\Users\\Juan\\repos\\calcjp\\dist\\calcjp\\_ssl.pyd',
   'DATA'),
  ('dist\\calcjp\\_win32sysloader.pyd',
   'C:\\Users\\Juan\\repos\\calcjp\\dist\\calcjp\\_win32sysloader.pyd',
   'DATA'),
  ('dist\\calcjp\\win32com\\shell\\shell.pyd',
   'C:\\Users\\Juan\\repos\\calcjp\\dist\\calcjp\\win32com\\shell\\shell.pyd',
   'DATA'),
  ('dist\\calcjp\\kivy_install\\modules\\console.py',
   'C:\\Users\\Juan\\repos\\calcjp\\dist\\calcjp\\kivy_install\\modules\\console.py',
   'DATA'),
  ('dist\\calcjp\\kivy_install\\modules\\cursor.py',
   'C:\\Users\\Juan\\repos\\calcjp\\dist\\calcjp\\kivy_install\\modules\\cursor.py',
   'DATA'),
  ('dist\\calcjp\\kivy_install\\modules\\inspector.py',
   'C:\\Users\\Juan\\repos\\calcjp\\dist\\calcjp\\kivy_install\\modules\\inspector.py',
   'DATA'),
  ('dist\\calcjp\\kivy_install\\modules\\joycursor.py',
   'C:\\Users\\Juan\\repos\\calcjp\\dist\\calcjp\\kivy_install\\modules\\joycursor.py',
   'DATA'),
  ('dist\\calcjp\\kivy_install\\modules\\keybinding.py',
   'C:\\Users\\Juan\\repos\\calcjp\\dist\\calcjp\\kivy_install\\modules\\keybinding.py',
   'DATA'),
  ('dist\\calcjp\\kivy_install\\modules\\monitor.py',
   'C:\\Users\\Juan\\repos\\calcjp\\dist\\calcjp\\kivy_install\\modules\\monitor.py',
   'DATA'),
  ('dist\\calcjp\\kivy_install\\modules\\recorder.py',
   'C:\\Users\\Juan\\repos\\calcjp\\dist\\calcjp\\kivy_install\\modules\\recorder.py',
   'DATA'),
  ('dist\\calcjp\\kivy_install\\modules\\screen.py',
   'C:\\Users\\Juan\\repos\\calcjp\\dist\\calcjp\\kivy_install\\modules\\screen.py',
   'DATA'),
  ('dist\\calcjp\\kivy_install\\modules\\showborder.py',
   'C:\\Users\\Juan\\repos\\calcjp\\dist\\calcjp\\kivy_install\\modules\\showborder.py',
   'DATA'),
  ('dist\\calcjp\\kivy_install\\modules\\touchring.py',
   'C:\\Users\\Juan\\repos\\calcjp\\dist\\calcjp\\kivy_install\\modules\\touchring.py',
   'DATA'),
  ('dist\\calcjp\\kivy_install\\modules\\webdebugger.py',
   'C:\\Users\\Juan\\repos\\calcjp\\dist\\calcjp\\kivy_install\\modules\\webdebugger.py',
   'DATA'),
  ('dist\\calcjp\\kivy_install\\modules\\_webdebugger.py',
   'C:\\Users\\Juan\\repos\\calcjp\\dist\\calcjp\\kivy_install\\modules\\_webdebugger.py',
   'DATA'),
  ('dist\\calcjp\\kivy_install\\modules\\__init__.py',
   'C:\\Users\\Juan\\repos\\calcjp\\dist\\calcjp\\kivy_install\\modules\\__init__.py',
   'DATA'),
  ('dist\\calcjp\\kivy_install\\modules\\__pycache__\\console.cpython-37.pyc',
   'C:\\Users\\Juan\\repos\\calcjp\\dist\\calcjp\\kivy_install\\modules\\__pycache__\\console.cpython-37.pyc',
   'DATA'),
  ('dist\\calcjp\\kivy_install\\modules\\__pycache__\\cursor.cpython-37.pyc',
   'C:\\Users\\Juan\\repos\\calcjp\\dist\\calcjp\\kivy_install\\modules\\__pycache__\\cursor.cpython-37.pyc',
   'DATA'),
  ('dist\\calcjp\\kivy_install\\modules\\__pycache__\\inspector.cpython-37.pyc',
   'C:\\Users\\Juan\\repos\\calcjp\\dist\\calcjp\\kivy_install\\modules\\__pycache__\\inspector.cpython-37.pyc',
   'DATA'),
  ('dist\\calcjp\\kivy_install\\modules\\__pycache__\\joycursor.cpython-37.pyc',
   'C:\\Users\\Juan\\repos\\calcjp\\dist\\calcjp\\kivy_install\\modules\\__pycache__\\joycursor.cpython-37.pyc',
   'DATA'),
  ('dist\\calcjp\\kivy_install\\modules\\__pycache__\\keybinding.cpython-37.pyc',
   'C:\\Users\\Juan\\repos\\calcjp\\dist\\calcjp\\kivy_install\\modules\\__pycache__\\keybinding.cpython-37.pyc',
   'DATA'),
  ('dist\\calcjp\\kivy_install\\modules\\__pycache__\\monitor.cpython-37.pyc',
   'C:\\Users\\Juan\\repos\\calcjp\\dist\\calcjp\\kivy_install\\modules\\__pycache__\\monitor.cpython-37.pyc',
   'DATA'),
  ('dist\\calcjp\\kivy_install\\modules\\__pycache__\\recorder.cpython-37.pyc',
   'C:\\Users\\Juan\\repos\\calcjp\\dist\\calcjp\\kivy_install\\modules\\__pycache__\\recorder.cpython-37.pyc',
   'DATA'),
  ('dist\\calcjp\\kivy_install\\modules\\__pycache__\\screen.cpython-37.pyc',
   'C:\\Users\\Juan\\repos\\calcjp\\dist\\calcjp\\kivy_install\\modules\\__pycache__\\screen.cpython-37.pyc',
   'DATA'),
  ('dist\\calcjp\\kivy_install\\modules\\__pycache__\\showborder.cpython-37.pyc',
   'C:\\Users\\Juan\\repos\\calcjp\\dist\\calcjp\\kivy_install\\modules\\__pycache__\\showborder.cpython-37.pyc',
   'DATA'),
  ('dist\\calcjp\\kivy_install\\modules\\__pycache__\\touchring.cpython-37.pyc',
   'C:\\Users\\Juan\\repos\\calcjp\\dist\\calcjp\\kivy_install\\modules\\__pycache__\\touchring.cpython-37.pyc',
   'DATA'),
  ('dist\\calcjp\\kivy_install\\modules\\__pycache__\\webdebugger.cpython-37.pyc',
   'C:\\Users\\Juan\\repos\\calcjp\\dist\\calcjp\\kivy_install\\modules\\__pycache__\\webdebugger.cpython-37.pyc',
   'DATA'),
  ('dist\\calcjp\\kivy_install\\modules\\__pycache__\\_webdebugger.cpython-37.pyc',
   'C:\\Users\\Juan\\repos\\calcjp\\dist\\calcjp\\kivy_install\\modules\\__pycache__\\_webdebugger.cpython-37.pyc',
   'DATA'),
  ('dist\\calcjp\\kivy_install\\modules\\__pycache__\\__init__.cpython-37.pyc',
   'C:\\Users\\Juan\\repos\\calcjp\\dist\\calcjp\\kivy_install\\modules\\__pycache__\\__init__.cpython-37.pyc',
   'DATA'),
  ('dist\\calcjp\\kivy_install\\data\\settings_kivy.json',
   'C:\\Users\\Juan\\repos\\calcjp\\dist\\calcjp\\kivy_install\\data\\settings_kivy.json',
   'DATA'),
  ('dist\\calcjp\\kivy_install\\data\\style.kv',
   'C:\\Users\\Juan\\repos\\calcjp\\dist\\calcjp\\kivy_install\\data\\style.kv',
   'DATA'),
  ('dist\\calcjp\\kivy_install\\data\\logo\\kivy-icon-128.png',
   'C:\\Users\\Juan\\repos\\calcjp\\dist\\calcjp\\kivy_install\\data\\logo\\kivy-icon-128.png',
   'DATA'),
  ('dist\\calcjp\\kivy_install\\data\\logo\\kivy-icon-16.png',
   'C:\\Users\\Juan\\repos\\calcjp\\dist\\calcjp\\kivy_install\\data\\logo\\kivy-icon-16.png',
   'DATA'),
  ('dist\\calcjp\\kivy_install\\data\\logo\\kivy-icon-24.png',
   'C:\\Users\\Juan\\repos\\calcjp\\dist\\calcjp\\kivy_install\\data\\logo\\kivy-icon-24.png',
   'DATA'),
  ('dist\\calcjp\\kivy_install\\data\\logo\\kivy-icon-256.png',
   'C:\\Users\\Juan\\repos\\calcjp\\dist\\calcjp\\kivy_install\\data\\logo\\kivy-icon-256.png',
   'DATA'),
  ('dist\\calcjp\\kivy_install\\data\\logo\\kivy-icon-32.png',
   'C:\\Users\\Juan\\repos\\calcjp\\dist\\calcjp\\kivy_install\\data\\logo\\kivy-icon-32.png',
   'DATA'),
  ('dist\\calcjp\\kivy_install\\data\\logo\\kivy-icon-48.png',
   'C:\\Users\\Juan\\repos\\calcjp\\dist\\calcjp\\kivy_install\\data\\logo\\kivy-icon-48.png',
   'DATA'),
  ('dist\\calcjp\\kivy_install\\data\\logo\\kivy-icon-512.png',
   'C:\\Users\\Juan\\repos\\calcjp\\dist\\calcjp\\kivy_install\\data\\logo\\kivy-icon-512.png',
   'DATA'),
  ('dist\\calcjp\\kivy_install\\data\\logo\\kivy-icon-64.png',
   'C:\\Users\\Juan\\repos\\calcjp\\dist\\calcjp\\kivy_install\\data\\logo\\kivy-icon-64.png',
   'DATA'),
  ('dist\\calcjp\\kivy_install\\data\\keyboards\\azerty.json',
   'C:\\Users\\Juan\\repos\\calcjp\\dist\\calcjp\\kivy_install\\data\\keyboards\\azerty.json',
   'DATA'),
  ('dist\\calcjp\\kivy_install\\data\\keyboards\\de.json',
   'C:\\Users\\Juan\\repos\\calcjp\\dist\\calcjp\\kivy_install\\data\\keyboards\\de.json',
   'DATA'),
  ('dist\\calcjp\\kivy_install\\data\\keyboards\\de_CH.json',
   'C:\\Users\\Juan\\repos\\calcjp\\dist\\calcjp\\kivy_install\\data\\keyboards\\de_CH.json',
   'DATA'),
  ('dist\\calcjp\\kivy_install\\data\\keyboards\\en_US.json',
   'C:\\Users\\Juan\\repos\\calcjp\\dist\\calcjp\\kivy_install\\data\\keyboards\\en_US.json',
   'DATA'),
  ('dist\\calcjp\\kivy_install\\data\\keyboards\\fr_CH.json',
   'C:\\Users\\Juan\\repos\\calcjp\\dist\\calcjp\\kivy_install\\data\\keyboards\\fr_CH.json',
   'DATA'),
  ('dist\\calcjp\\kivy_install\\data\\keyboards\\qwerty.json',
   'C:\\Users\\Juan\\repos\\calcjp\\dist\\calcjp\\kivy_install\\data\\keyboards\\qwerty.json',
   'DATA'),
  ('dist\\calcjp\\kivy_install\\data\\keyboards\\qwertz.json',
   'C:\\Users\\Juan\\repos\\calcjp\\dist\\calcjp\\kivy_install\\data\\keyboards\\qwertz.json',
   'DATA'),
  ('dist\\calcjp\\kivy_install\\data\\images\\background.jpg',
   'C:\\Users\\Juan\\repos\\calcjp\\dist\\calcjp\\kivy_install\\data\\images\\background.jpg',
   'DATA'),
  ('dist\\calcjp\\kivy_install\\data\\images\\cursor.png',
   'C:\\Users\\Juan\\repos\\calcjp\\dist\\calcjp\\kivy_install\\data\\images\\cursor.png',
   'DATA'),
  ('dist\\calcjp\\kivy_install\\data\\images\\defaultshape.png',
   'C:\\Users\\Juan\\repos\\calcjp\\dist\\calcjp\\kivy_install\\data\\images\\defaultshape.png',
   'DATA'),
  ('dist\\calcjp\\kivy_install\\data\\images\\defaulttheme-0.png',
   'C:\\Users\\Juan\\repos\\calcjp\\dist\\calcjp\\kivy_install\\data\\images\\defaulttheme-0.png',
   'DATA'),
  ('dist\\calcjp\\kivy_install\\data\\images\\defaulttheme.atlas',
   'C:\\Users\\Juan\\repos\\calcjp\\dist\\calcjp\\kivy_install\\data\\images\\defaulttheme.atlas',
   'DATA'),
  ('dist\\calcjp\\kivy_install\\data\\images\\image-loading.gif',
   'C:\\Users\\Juan\\repos\\calcjp\\dist\\calcjp\\kivy_install\\data\\images\\image-loading.gif',
   'DATA'),
  ('dist\\calcjp\\kivy_install\\data\\images\\testpattern.png',
   'C:\\Users\\Juan\\repos\\calcjp\\dist\\calcjp\\kivy_install\\data\\images\\testpattern.png',
   'DATA'),
  ('dist\\calcjp\\kivy_install\\data\\glsl\\default.fs',
   'C:\\Users\\Juan\\repos\\calcjp\\dist\\calcjp\\kivy_install\\data\\glsl\\default.fs',
   'DATA'),
  ('dist\\calcjp\\kivy_install\\data\\glsl\\default.png',
   'C:\\Users\\Juan\\repos\\calcjp\\dist\\calcjp\\kivy_install\\data\\glsl\\default.png',
   'DATA'),
  ('dist\\calcjp\\kivy_install\\data\\glsl\\default.vs',
   'C:\\Users\\Juan\\repos\\calcjp\\dist\\calcjp\\kivy_install\\data\\glsl\\default.vs',
   'DATA'),
  ('dist\\calcjp\\kivy_install\\data\\glsl\\header.fs',
   'C:\\Users\\Juan\\repos\\calcjp\\dist\\calcjp\\kivy_install\\data\\glsl\\header.fs',
   'DATA'),
  ('dist\\calcjp\\kivy_install\\data\\glsl\\header.vs',
   'C:\\Users\\Juan\\repos\\calcjp\\dist\\calcjp\\kivy_install\\data\\glsl\\header.vs',
   'DATA'),
  ('dist\\calcjp\\kivy_install\\data\\fonts\\DejaVuSans.ttf',
   'C:\\Users\\Juan\\repos\\calcjp\\dist\\calcjp\\kivy_install\\data\\fonts\\DejaVuSans.ttf',
   'DATA'),
  ('dist\\calcjp\\kivy_install\\data\\fonts\\Roboto-Bold.ttf',
   'C:\\Users\\Juan\\repos\\calcjp\\dist\\calcjp\\kivy_install\\data\\fonts\\Roboto-Bold.ttf',
   'DATA'),
  ('dist\\calcjp\\kivy_install\\data\\fonts\\Roboto-BoldItalic.ttf',
   'C:\\Users\\Juan\\repos\\calcjp\\dist\\calcjp\\kivy_install\\data\\fonts\\Roboto-BoldItalic.ttf',
   'DATA'),
  ('dist\\calcjp\\kivy_install\\data\\fonts\\Roboto-Italic.ttf',
   'C:\\Users\\Juan\\repos\\calcjp\\dist\\calcjp\\kivy_install\\data\\fonts\\Roboto-Italic.ttf',
   'DATA'),
  ('dist\\calcjp\\kivy_install\\data\\fonts\\Roboto-Regular.ttf',
   'C:\\Users\\Juan\\repos\\calcjp\\dist\\calcjp\\kivy_install\\data\\fonts\\Roboto-Regular.ttf',
   'DATA'),
  ('dist\\calcjp\\kivy_install\\data\\fonts\\RobotoMono-Regular.ttf',
   'C:\\Users\\Juan\\repos\\calcjp\\dist\\calcjp\\kivy_install\\data\\fonts\\RobotoMono-Regular.ttf',
   'DATA'),
  ('dist\\calcjp\\kivy\\properties.cp37-win32.pyd',
   'C:\\Users\\Juan\\repos\\calcjp\\dist\\calcjp\\kivy\\properties.cp37-win32.pyd',
   'DATA'),
  ('dist\\calcjp\\kivy\\weakproxy.cp37-win32.pyd',
   'C:\\Users\\Juan\\repos\\calcjp\\dist\\calcjp\\kivy\\weakproxy.cp37-win32.pyd',
   'DATA'),
  ('dist\\calcjp\\kivy\\_clock.cp37-win32.pyd',
   'C:\\Users\\Juan\\repos\\calcjp\\dist\\calcjp\\kivy\\_clock.cp37-win32.pyd',
   'DATA'),
  ('dist\\calcjp\\kivy\\_event.cp37-win32.pyd',
   'C:\\Users\\Juan\\repos\\calcjp\\dist\\calcjp\\kivy\\_event.cp37-win32.pyd',
   'DATA'),
  ('dist\\calcjp\\kivy\\lib\\gstplayer\\_gstplayer.cp37-win32.pyd',
   'C:\\Users\\Juan\\repos\\calcjp\\dist\\calcjp\\kivy\\lib\\gstplayer\\_gstplayer.cp37-win32.pyd',
   'DATA'),
  ('dist\\calcjp\\kivy\\graphics\\buffer.cp37-win32.pyd',
   'C:\\Users\\Juan\\repos\\calcjp\\dist\\calcjp\\kivy\\graphics\\buffer.cp37-win32.pyd',
   'DATA'),
  ('dist\\calcjp\\kivy\\graphics\\cgl.cp37-win32.pyd',
   'C:\\Users\\Juan\\repos\\calcjp\\dist\\calcjp\\kivy\\graphics\\cgl.cp37-win32.pyd',
   'DATA'),
  ('dist\\calcjp\\kivy\\graphics\\compiler.cp37-win32.pyd',
   'C:\\Users\\Juan\\repos\\calcjp\\dist\\calcjp\\kivy\\graphics\\compiler.cp37-win32.pyd',
   'DATA'),
  ('dist\\calcjp\\kivy\\graphics\\context.cp37-win32.pyd',
   'C:\\Users\\Juan\\repos\\calcjp\\dist\\calcjp\\kivy\\graphics\\context.cp37-win32.pyd',
   'DATA'),
  ('dist\\calcjp\\kivy\\graphics\\context_instructions.cp37-win32.pyd',
   'C:\\Users\\Juan\\repos\\calcjp\\dist\\calcjp\\kivy\\graphics\\context_instructions.cp37-win32.pyd',
   'DATA'),
  ('dist\\calcjp\\kivy\\graphics\\fbo.cp37-win32.pyd',
   'C:\\Users\\Juan\\repos\\calcjp\\dist\\calcjp\\kivy\\graphics\\fbo.cp37-win32.pyd',
   'DATA'),
  ('dist\\calcjp\\kivy\\graphics\\gl_instructions.cp37-win32.pyd',
   'C:\\Users\\Juan\\repos\\calcjp\\dist\\calcjp\\kivy\\graphics\\gl_instructions.cp37-win32.pyd',
   'DATA'),
  ('dist\\calcjp\\kivy\\graphics\\instructions.cp37-win32.pyd',
   'C:\\Users\\Juan\\repos\\calcjp\\dist\\calcjp\\kivy\\graphics\\instructions.cp37-win32.pyd',
   'DATA'),
  ('dist\\calcjp\\kivy\\graphics\\opengl.cp37-win32.pyd',
   'C:\\Users\\Juan\\repos\\calcjp\\dist\\calcjp\\kivy\\graphics\\opengl.cp37-win32.pyd',
   'DATA'),
  ('dist\\calcjp\\kivy\\graphics\\opengl_utils.cp37-win32.pyd',
   'C:\\Users\\Juan\\repos\\calcjp\\dist\\calcjp\\kivy\\graphics\\opengl_utils.cp37-win32.pyd',
   'DATA'),
  ('dist\\calcjp\\kivy\\graphics\\scissor_instructions.cp37-win32.pyd',
   'C:\\Users\\Juan\\repos\\calcjp\\dist\\calcjp\\kivy\\graphics\\scissor_instructions.cp37-win32.pyd',
   'DATA'),
  ('dist\\calcjp\\kivy\\graphics\\shader.cp37-win32.pyd',
   'C:\\Users\\Juan\\repos\\calcjp\\dist\\calcjp\\kivy\\graphics\\shader.cp37-win32.pyd',
   'DATA'),
  ('dist\\calcjp\\kivy\\graphics\\stencil_instructions.cp37-win32.pyd',
   'C:\\Users\\Juan\\repos\\calcjp\\dist\\calcjp\\kivy\\graphics\\stencil_instructions.cp37-win32.pyd',
   'DATA'),
  ('dist\\calcjp\\kivy\\graphics\\svg.cp37-win32.pyd',
   'C:\\Users\\Juan\\repos\\calcjp\\dist\\calcjp\\kivy\\graphics\\svg.cp37-win32.pyd',
   'DATA'),
  ('dist\\calcjp\\kivy\\graphics\\tesselator.cp37-win32.pyd',
   'C:\\Users\\Juan\\repos\\calcjp\\dist\\calcjp\\kivy\\graphics\\tesselator.cp37-win32.pyd',
   'DATA'),
  ('dist\\calcjp\\kivy\\graphics\\texture.cp37-win32.pyd',
   'C:\\Users\\Juan\\repos\\calcjp\\dist\\calcjp\\kivy\\graphics\\texture.cp37-win32.pyd',
   'DATA'),
  ('dist\\calcjp\\kivy\\graphics\\transformation.cp37-win32.pyd',
   'C:\\Users\\Juan\\repos\\calcjp\\dist\\calcjp\\kivy\\graphics\\transformation.cp37-win32.pyd',
   'DATA'),
  ('dist\\calcjp\\kivy\\graphics\\vbo.cp37-win32.pyd',
   'C:\\Users\\Juan\\repos\\calcjp\\dist\\calcjp\\kivy\\graphics\\vbo.cp37-win32.pyd',
   'DATA'),
  ('dist\\calcjp\\kivy\\graphics\\vertex.cp37-win32.pyd',
   'C:\\Users\\Juan\\repos\\calcjp\\dist\\calcjp\\kivy\\graphics\\vertex.cp37-win32.pyd',
   'DATA'),
  ('dist\\calcjp\\kivy\\graphics\\vertex_instructions.cp37-win32.pyd',
   'C:\\Users\\Juan\\repos\\calcjp\\dist\\calcjp\\kivy\\graphics\\vertex_instructions.cp37-win32.pyd',
   'DATA'),
  ('dist\\calcjp\\kivy\\graphics\\cgl_backend\\cgl_debug.cp37-win32.pyd',
   'C:\\Users\\Juan\\repos\\calcjp\\dist\\calcjp\\kivy\\graphics\\cgl_backend\\cgl_debug.cp37-win32.pyd',
   'DATA'),
  ('dist\\calcjp\\kivy\\graphics\\cgl_backend\\cgl_gl.cp37-win32.pyd',
   'C:\\Users\\Juan\\repos\\calcjp\\dist\\calcjp\\kivy\\graphics\\cgl_backend\\cgl_gl.cp37-win32.pyd',
   'DATA'),
  ('dist\\calcjp\\kivy\\graphics\\cgl_backend\\cgl_glew.cp37-win32.pyd',
   'C:\\Users\\Juan\\repos\\calcjp\\dist\\calcjp\\kivy\\graphics\\cgl_backend\\cgl_glew.cp37-win32.pyd',
   'DATA'),
  ('dist\\calcjp\\kivy\\graphics\\cgl_backend\\cgl_mock.cp37-win32.pyd',
   'C:\\Users\\Juan\\repos\\calcjp\\dist\\calcjp\\kivy\\graphics\\cgl_backend\\cgl_mock.cp37-win32.pyd',
   'DATA'),
  ('dist\\calcjp\\kivy\\graphics\\cgl_backend\\cgl_sdl2.cp37-win32.pyd',
   'C:\\Users\\Juan\\repos\\calcjp\\dist\\calcjp\\kivy\\graphics\\cgl_backend\\cgl_sdl2.cp37-win32.pyd',
   'DATA'),
  ('dist\\calcjp\\kivy\\core\\window\\window_info.cp37-win32.pyd',
   'C:\\Users\\Juan\\repos\\calcjp\\dist\\calcjp\\kivy\\core\\window\\window_info.cp37-win32.pyd',
   'DATA'),
  ('dist\\calcjp\\kivy\\core\\window\\_window_sdl2.cp37-win32.pyd',
   'C:\\Users\\Juan\\repos\\calcjp\\dist\\calcjp\\kivy\\core\\window\\_window_sdl2.cp37-win32.pyd',
   'DATA'),
  ('dist\\calcjp\\kivy\\core\\text\\text_layout.cp37-win32.pyd',
   'C:\\Users\\Juan\\repos\\calcjp\\dist\\calcjp\\kivy\\core\\text\\text_layout.cp37-win32.pyd',
   'DATA'),
  ('dist\\calcjp\\kivy\\core\\text\\_text_sdl2.cp37-win32.pyd',
   'C:\\Users\\Juan\\repos\\calcjp\\dist\\calcjp\\kivy\\core\\text\\_text_sdl2.cp37-win32.pyd',
   'DATA'),
  ('dist\\calcjp\\kivy\\core\\image\\_img_sdl2.cp37-win32.pyd',
   'C:\\Users\\Juan\\repos\\calcjp\\dist\\calcjp\\kivy\\core\\image\\_img_sdl2.cp37-win32.pyd',
   'DATA'),
  ('dist\\calcjp\\kivy\\core\\clipboard\\_clipboard_sdl2.cp37-win32.pyd',
   'C:\\Users\\Juan\\repos\\calcjp\\dist\\calcjp\\kivy\\core\\clipboard\\_clipboard_sdl2.cp37-win32.pyd',
   'DATA'),
  ('dist\\calcjp\\kivy\\core\\audio\\audio_sdl2.cp37-win32.pyd',
   'C:\\Users\\Juan\\repos\\calcjp\\dist\\calcjp\\kivy\\core\\audio\\audio_sdl2.cp37-win32.pyd',
   'DATA'),
  ('dist\\calcjp\\Include\\pyconfig.h',
   'C:\\Users\\Juan\\repos\\calcjp\\dist\\calcjp\\Include\\pyconfig.h',
   'DATA'),
  ('dist\\calcjp\\docutils\\writers\\s5_html\\themes\\README.txt',
   'C:\\Users\\Juan\\repos\\calcjp\\dist\\calcjp\\docutils\\writers\\s5_html\\themes\\README.txt',
   'DATA'),
  ('dist\\calcjp\\docutils\\writers\\s5_html\\themes\\small-white\\framing.css',
   'C:\\Users\\Juan\\repos\\calcjp\\dist\\calcjp\\docutils\\writers\\s5_html\\themes\\small-white\\framing.css',
   'DATA'),
  ('dist\\calcjp\\docutils\\writers\\s5_html\\themes\\small-white\\pretty.css',
   'C:\\Users\\Juan\\repos\\calcjp\\dist\\calcjp\\docutils\\writers\\s5_html\\themes\\small-white\\pretty.css',
   'DATA'),
  ('dist\\calcjp\\docutils\\writers\\s5_html\\themes\\small-black\\pretty.css',
   'C:\\Users\\Juan\\repos\\calcjp\\dist\\calcjp\\docutils\\writers\\s5_html\\themes\\small-black\\pretty.css',
   'DATA'),
  ('dist\\calcjp\\docutils\\writers\\s5_html\\themes\\small-black\\__base__',
   'C:\\Users\\Juan\\repos\\calcjp\\dist\\calcjp\\docutils\\writers\\s5_html\\themes\\small-black\\__base__',
   'DATA'),
  ('dist\\calcjp\\docutils\\writers\\s5_html\\themes\\medium-white\\framing.css',
   'C:\\Users\\Juan\\repos\\calcjp\\dist\\calcjp\\docutils\\writers\\s5_html\\themes\\medium-white\\framing.css',
   'DATA'),
  ('dist\\calcjp\\docutils\\writers\\s5_html\\themes\\medium-white\\pretty.css',
   'C:\\Users\\Juan\\repos\\calcjp\\dist\\calcjp\\docutils\\writers\\s5_html\\themes\\medium-white\\pretty.css',
   'DATA'),
  ('dist\\calcjp\\docutils\\writers\\s5_html\\themes\\medium-black\\pretty.css',
   'C:\\Users\\Juan\\repos\\calcjp\\dist\\calcjp\\docutils\\writers\\s5_html\\themes\\medium-black\\pretty.css',
   'DATA'),
  ('dist\\calcjp\\docutils\\writers\\s5_html\\themes\\medium-black\\__base__',
   'C:\\Users\\Juan\\repos\\calcjp\\dist\\calcjp\\docutils\\writers\\s5_html\\themes\\medium-black\\__base__',
   'DATA'),
  ('dist\\calcjp\\docutils\\writers\\s5_html\\themes\\default\\blank.gif',
   'C:\\Users\\Juan\\repos\\calcjp\\dist\\calcjp\\docutils\\writers\\s5_html\\themes\\default\\blank.gif',
   'DATA'),
  ('dist\\calcjp\\docutils\\writers\\s5_html\\themes\\default\\framing.css',
   'C:\\Users\\Juan\\repos\\calcjp\\dist\\calcjp\\docutils\\writers\\s5_html\\themes\\default\\framing.css',
   'DATA'),
  ('dist\\calcjp\\docutils\\writers\\s5_html\\themes\\default\\iepngfix.htc',
   'C:\\Users\\Juan\\repos\\calcjp\\dist\\calcjp\\docutils\\writers\\s5_html\\themes\\default\\iepngfix.htc',
   'DATA'),
  ('dist\\calcjp\\docutils\\writers\\s5_html\\themes\\default\\opera.css',
   'C:\\Users\\Juan\\repos\\calcjp\\dist\\calcjp\\docutils\\writers\\s5_html\\themes\\default\\opera.css',
   'DATA'),
  ('dist\\calcjp\\docutils\\writers\\s5_html\\themes\\default\\outline.css',
   'C:\\Users\\Juan\\repos\\calcjp\\dist\\calcjp\\docutils\\writers\\s5_html\\themes\\default\\outline.css',
   'DATA'),
  ('dist\\calcjp\\docutils\\writers\\s5_html\\themes\\default\\pretty.css',
   'C:\\Users\\Juan\\repos\\calcjp\\dist\\calcjp\\docutils\\writers\\s5_html\\themes\\default\\pretty.css',
   'DATA'),
  ('dist\\calcjp\\docutils\\writers\\s5_html\\themes\\default\\print.css',
   'C:\\Users\\Juan\\repos\\calcjp\\dist\\calcjp\\docutils\\writers\\s5_html\\themes\\default\\print.css',
   'DATA'),
  ('dist\\calcjp\\docutils\\writers\\s5_html\\themes\\default\\s5-core.css',
   'C:\\Users\\Juan\\repos\\calcjp\\dist\\calcjp\\docutils\\writers\\s5_html\\themes\\default\\s5-core.css',
   'DATA'),
  ('dist\\calcjp\\docutils\\writers\\s5_html\\themes\\default\\slides.css',
   'C:\\Users\\Juan\\repos\\calcjp\\dist\\calcjp\\docutils\\writers\\s5_html\\themes\\default\\slides.css',
   'DATA'),
  ('dist\\calcjp\\docutils\\writers\\s5_html\\themes\\default\\slides.js',
   'C:\\Users\\Juan\\repos\\calcjp\\dist\\calcjp\\docutils\\writers\\s5_html\\themes\\default\\slides.js',
   'DATA'),
  ('dist\\calcjp\\docutils\\writers\\s5_html\\themes\\big-white\\framing.css',
   'C:\\Users\\Juan\\repos\\calcjp\\dist\\calcjp\\docutils\\writers\\s5_html\\themes\\big-white\\framing.css',
   'DATA'),
  ('dist\\calcjp\\docutils\\writers\\s5_html\\themes\\big-white\\pretty.css',
   'C:\\Users\\Juan\\repos\\calcjp\\dist\\calcjp\\docutils\\writers\\s5_html\\themes\\big-white\\pretty.css',
   'DATA'),
  ('dist\\calcjp\\docutils\\writers\\s5_html\\themes\\big-black\\framing.css',
   'C:\\Users\\Juan\\repos\\calcjp\\dist\\calcjp\\docutils\\writers\\s5_html\\themes\\big-black\\framing.css',
   'DATA'),
  ('dist\\calcjp\\docutils\\writers\\s5_html\\themes\\big-black\\pretty.css',
   'C:\\Users\\Juan\\repos\\calcjp\\dist\\calcjp\\docutils\\writers\\s5_html\\themes\\big-black\\pretty.css',
   'DATA'),
  ('dist\\calcjp\\docutils\\writers\\s5_html\\themes\\big-black\\__base__',
   'C:\\Users\\Juan\\repos\\calcjp\\dist\\calcjp\\docutils\\writers\\s5_html\\themes\\big-black\\__base__',
   'DATA'),
  ('dist\\calcjp\\docutils\\writers\\pep_html\\pep.css',
   'C:\\Users\\Juan\\repos\\calcjp\\dist\\calcjp\\docutils\\writers\\pep_html\\pep.css',
   'DATA'),
  ('dist\\calcjp\\docutils\\writers\\pep_html\\template.txt',
   'C:\\Users\\Juan\\repos\\calcjp\\dist\\calcjp\\docutils\\writers\\pep_html\\template.txt',
   'DATA'),
  ('dist\\calcjp\\docutils\\writers\\odf_odt\\styles.odt',
   'C:\\Users\\Juan\\repos\\calcjp\\dist\\calcjp\\docutils\\writers\\odf_odt\\styles.odt',
   'DATA'),
  ('dist\\calcjp\\docutils\\writers\\latex2e\\default.tex',
   'C:\\Users\\Juan\\repos\\calcjp\\dist\\calcjp\\docutils\\writers\\latex2e\\default.tex',
   'DATA'),
  ('dist\\calcjp\\docutils\\writers\\latex2e\\titlepage.tex',
   'C:\\Users\\Juan\\repos\\calcjp\\dist\\calcjp\\docutils\\writers\\latex2e\\titlepage.tex',
   'DATA'),
  ('dist\\calcjp\\docutils\\writers\\latex2e\\xelatex.tex',
   'C:\\Users\\Juan\\repos\\calcjp\\dist\\calcjp\\docutils\\writers\\latex2e\\xelatex.tex',
   'DATA'),
  ('dist\\calcjp\\docutils\\writers\\html5_polyglot\\math.css',
   'C:\\Users\\Juan\\repos\\calcjp\\dist\\calcjp\\docutils\\writers\\html5_polyglot\\math.css',
   'DATA'),
  ('dist\\calcjp\\docutils\\writers\\html5_polyglot\\minimal.css',
   'C:\\Users\\Juan\\repos\\calcjp\\dist\\calcjp\\docutils\\writers\\html5_polyglot\\minimal.css',
   'DATA'),
  ('dist\\calcjp\\docutils\\writers\\html5_polyglot\\plain.css',
   'C:\\Users\\Juan\\repos\\calcjp\\dist\\calcjp\\docutils\\writers\\html5_polyglot\\plain.css',
   'DATA'),
  ('dist\\calcjp\\docutils\\writers\\html5_polyglot\\template.txt',
   'C:\\Users\\Juan\\repos\\calcjp\\dist\\calcjp\\docutils\\writers\\html5_polyglot\\template.txt',
   'DATA'),
  ('dist\\calcjp\\docutils\\writers\\html4css1\\html4css1.css',
   'C:\\Users\\Juan\\repos\\calcjp\\dist\\calcjp\\docutils\\writers\\html4css1\\html4css1.css',
   'DATA'),
  ('dist\\calcjp\\docutils\\writers\\html4css1\\template.txt',
   'C:\\Users\\Juan\\repos\\calcjp\\dist\\calcjp\\docutils\\writers\\html4css1\\template.txt',
   'DATA'),
  ('dist\\calcjp\\docutils\\parsers\\rst\\include\\isoamsa.txt',
   'C:\\Users\\Juan\\repos\\calcjp\\dist\\calcjp\\docutils\\parsers\\rst\\include\\isoamsa.txt',
   'DATA'),
  ('dist\\calcjp\\docutils\\parsers\\rst\\include\\isoamsb.txt',
   'C:\\Users\\Juan\\repos\\calcjp\\dist\\calcjp\\docutils\\parsers\\rst\\include\\isoamsb.txt',
   'DATA'),
  ('dist\\calcjp\\docutils\\parsers\\rst\\include\\isoamsc.txt',
   'C:\\Users\\Juan\\repos\\calcjp\\dist\\calcjp\\docutils\\parsers\\rst\\include\\isoamsc.txt',
   'DATA'),
  ('dist\\calcjp\\docutils\\parsers\\rst\\include\\isoamsn.txt',
   'C:\\Users\\Juan\\repos\\calcjp\\dist\\calcjp\\docutils\\parsers\\rst\\include\\isoamsn.txt',
   'DATA'),
  ('dist\\calcjp\\docutils\\parsers\\rst\\include\\isoamso.txt',
   'C:\\Users\\Juan\\repos\\calcjp\\dist\\calcjp\\docutils\\parsers\\rst\\include\\isoamso.txt',
   'DATA'),
  ('dist\\calcjp\\docutils\\parsers\\rst\\include\\isoamsr.txt',
   'C:\\Users\\Juan\\repos\\calcjp\\dist\\calcjp\\docutils\\parsers\\rst\\include\\isoamsr.txt',
   'DATA'),
  ('dist\\calcjp\\docutils\\parsers\\rst\\include\\isobox.txt',
   'C:\\Users\\Juan\\repos\\calcjp\\dist\\calcjp\\docutils\\parsers\\rst\\include\\isobox.txt',
   'DATA'),
  ('dist\\calcjp\\docutils\\parsers\\rst\\include\\isocyr1.txt',
   'C:\\Users\\Juan\\repos\\calcjp\\dist\\calcjp\\docutils\\parsers\\rst\\include\\isocyr1.txt',
   'DATA'),
  ('dist\\calcjp\\docutils\\parsers\\rst\\include\\isocyr2.txt',
   'C:\\Users\\Juan\\repos\\calcjp\\dist\\calcjp\\docutils\\parsers\\rst\\include\\isocyr2.txt',
   'DATA'),
  ('dist\\calcjp\\docutils\\parsers\\rst\\include\\isodia.txt',
   'C:\\Users\\Juan\\repos\\calcjp\\dist\\calcjp\\docutils\\parsers\\rst\\include\\isodia.txt',
   'DATA'),
  ('dist\\calcjp\\docutils\\parsers\\rst\\include\\isogrk1.txt',
   'C:\\Users\\Juan\\repos\\calcjp\\dist\\calcjp\\docutils\\parsers\\rst\\include\\isogrk1.txt',
   'DATA'),
  ('dist\\calcjp\\docutils\\parsers\\rst\\include\\isogrk2.txt',
   'C:\\Users\\Juan\\repos\\calcjp\\dist\\calcjp\\docutils\\parsers\\rst\\include\\isogrk2.txt',
   'DATA'),
  ('dist\\calcjp\\docutils\\parsers\\rst\\include\\isogrk3.txt',
   'C:\\Users\\Juan\\repos\\calcjp\\dist\\calcjp\\docutils\\parsers\\rst\\include\\isogrk3.txt',
   'DATA'),
  ('dist\\calcjp\\docutils\\parsers\\rst\\include\\isogrk4-wide.txt',
   'C:\\Users\\Juan\\repos\\calcjp\\dist\\calcjp\\docutils\\parsers\\rst\\include\\isogrk4-wide.txt',
   'DATA'),
  ('dist\\calcjp\\docutils\\parsers\\rst\\include\\isogrk4.txt',
   'C:\\Users\\Juan\\repos\\calcjp\\dist\\calcjp\\docutils\\parsers\\rst\\include\\isogrk4.txt',
   'DATA'),
  ('dist\\calcjp\\docutils\\parsers\\rst\\include\\isolat1.txt',
   'C:\\Users\\Juan\\repos\\calcjp\\dist\\calcjp\\docutils\\parsers\\rst\\include\\isolat1.txt',
   'DATA'),
  ('dist\\calcjp\\docutils\\parsers\\rst\\include\\isolat2.txt',
   'C:\\Users\\Juan\\repos\\calcjp\\dist\\calcjp\\docutils\\parsers\\rst\\include\\isolat2.txt',
   'DATA'),
  ('dist\\calcjp\\docutils\\parsers\\rst\\include\\isomfrk-wide.txt',
   'C:\\Users\\Juan\\repos\\calcjp\\dist\\calcjp\\docutils\\parsers\\rst\\include\\isomfrk-wide.txt',
   'DATA'),
  ('dist\\calcjp\\docutils\\parsers\\rst\\include\\isomfrk.txt',
   'C:\\Users\\Juan\\repos\\calcjp\\dist\\calcjp\\docutils\\parsers\\rst\\include\\isomfrk.txt',
   'DATA'),
  ('dist\\calcjp\\docutils\\parsers\\rst\\include\\isomopf-wide.txt',
   'C:\\Users\\Juan\\repos\\calcjp\\dist\\calcjp\\docutils\\parsers\\rst\\include\\isomopf-wide.txt',
   'DATA'),
  ('dist\\calcjp\\docutils\\parsers\\rst\\include\\isomopf.txt',
   'C:\\Users\\Juan\\repos\\calcjp\\dist\\calcjp\\docutils\\parsers\\rst\\include\\isomopf.txt',
   'DATA'),
  ('dist\\calcjp\\docutils\\parsers\\rst\\include\\isomscr-wide.txt',
   'C:\\Users\\Juan\\repos\\calcjp\\dist\\calcjp\\docutils\\parsers\\rst\\include\\isomscr-wide.txt',
   'DATA'),
  ('dist\\calcjp\\docutils\\parsers\\rst\\include\\isomscr.txt',
   'C:\\Users\\Juan\\repos\\calcjp\\dist\\calcjp\\docutils\\parsers\\rst\\include\\isomscr.txt',
   'DATA'),
  ('dist\\calcjp\\docutils\\parsers\\rst\\include\\isonum.txt',
   'C:\\Users\\Juan\\repos\\calcjp\\dist\\calcjp\\docutils\\parsers\\rst\\include\\isonum.txt',
   'DATA'),
  ('dist\\calcjp\\docutils\\parsers\\rst\\include\\isopub.txt',
   'C:\\Users\\Juan\\repos\\calcjp\\dist\\calcjp\\docutils\\parsers\\rst\\include\\isopub.txt',
   'DATA'),
  ('dist\\calcjp\\docutils\\parsers\\rst\\include\\isotech.txt',
   'C:\\Users\\Juan\\repos\\calcjp\\dist\\calcjp\\docutils\\parsers\\rst\\include\\isotech.txt',
   'DATA'),
  ('dist\\calcjp\\docutils\\parsers\\rst\\include\\mmlalias.txt',
   'C:\\Users\\Juan\\repos\\calcjp\\dist\\calcjp\\docutils\\parsers\\rst\\include\\mmlalias.txt',
   'DATA'),
  ('dist\\calcjp\\docutils\\parsers\\rst\\include\\mmlextra-wide.txt',
   'C:\\Users\\Juan\\repos\\calcjp\\dist\\calcjp\\docutils\\parsers\\rst\\include\\mmlextra-wide.txt',
   'DATA'),
  ('dist\\calcjp\\docutils\\parsers\\rst\\include\\mmlextra.txt',
   'C:\\Users\\Juan\\repos\\calcjp\\dist\\calcjp\\docutils\\parsers\\rst\\include\\mmlextra.txt',
   'DATA'),
  ('dist\\calcjp\\docutils\\parsers\\rst\\include\\README.txt',
   'C:\\Users\\Juan\\repos\\calcjp\\dist\\calcjp\\docutils\\parsers\\rst\\include\\README.txt',
   'DATA'),
  ('dist\\calcjp\\docutils\\parsers\\rst\\include\\s5defs.txt',
   'C:\\Users\\Juan\\repos\\calcjp\\dist\\calcjp\\docutils\\parsers\\rst\\include\\s5defs.txt',
   'DATA'),
  ('dist\\calcjp\\docutils\\parsers\\rst\\include\\xhtml1-lat1.txt',
   'C:\\Users\\Juan\\repos\\calcjp\\dist\\calcjp\\docutils\\parsers\\rst\\include\\xhtml1-lat1.txt',
   'DATA'),
  ('dist\\calcjp\\docutils\\parsers\\rst\\include\\xhtml1-special.txt',
   'C:\\Users\\Juan\\repos\\calcjp\\dist\\calcjp\\docutils\\parsers\\rst\\include\\xhtml1-special.txt',
   'DATA'),
  ('dist\\calcjp\\docutils\\parsers\\rst\\include\\xhtml1-symbol.txt',
   'C:\\Users\\Juan\\repos\\calcjp\\dist\\calcjp\\docutils\\parsers\\rst\\include\\xhtml1-symbol.txt',
   'DATA'),
  ('build\\calcjp\\Analysis-00.toc',
   'C:\\Users\\Juan\\repos\\calcjp\\build\\calcjp\\Analysis-00.toc',
   'DATA'),
  ('build\\calcjp\\base_library.zip',
   'C:\\Users\\Juan\\repos\\calcjp\\build\\calcjp\\base_library.zip',
   'DATA'),
  ('build\\calcjp\\calcjp.exe',
   'C:\\Users\\Juan\\repos\\calcjp\\build\\calcjp\\calcjp.exe',
   'DATA'),
  ('build\\calcjp\\calcjp.exe.manifest',
   'C:\\Users\\Juan\\repos\\calcjp\\build\\calcjp\\calcjp.exe.manifest',
   'DATA'),
  ('build\\calcjp\\COLLECT-00.toc',
   'C:\\Users\\Juan\\repos\\calcjp\\build\\calcjp\\COLLECT-00.toc',
   'DATA'),
  ('build\\calcjp\\EXE-00.toc',
   'C:\\Users\\Juan\\repos\\calcjp\\build\\calcjp\\EXE-00.toc',
   'DATA'),
  ('build\\calcjp\\PKG-00.pkg',
   'C:\\Users\\Juan\\repos\\calcjp\\build\\calcjp\\PKG-00.pkg',
   'DATA'),
  ('build\\calcjp\\PKG-00.toc',
   'C:\\Users\\Juan\\repos\\calcjp\\build\\calcjp\\PKG-00.toc',
   'DATA'),
  ('build\\calcjp\\PYZ-00.pyz',
   'C:\\Users\\Juan\\repos\\calcjp\\build\\calcjp\\PYZ-00.pyz',
   'DATA'),
  ('build\\calcjp\\PYZ-00.toc',
   'C:\\Users\\Juan\\repos\\calcjp\\build\\calcjp\\PYZ-00.toc',
   'DATA'),
  ('build\\calcjp\\Tree-00.toc',
   'C:\\Users\\Juan\\repos\\calcjp\\build\\calcjp\\Tree-00.toc',
   'DATA'),
  ('build\\calcjp\\warn-calcjp.txt',
   'C:\\Users\\Juan\\repos\\calcjp\\build\\calcjp\\warn-calcjp.txt',
   'DATA'),
  ('build\\calcjp\\xref-calcjp.html',
   'C:\\Users\\Juan\\repos\\calcjp\\build\\calcjp\\xref-calcjp.html',
   'DATA'),
  ('ais\\0.ai', 'C:\\Users\\Juan\\repos\\calcjp\\ais\\0.ai', 'DATA'),
  ('ais\\1.ai', 'C:\\Users\\Juan\\repos\\calcjp\\ais\\1.ai', 'DATA'),
  ('ais\\2.ai', 'C:\\Users\\Juan\\repos\\calcjp\\ais\\2.ai', 'DATA'),
  ('ais\\3.ai', 'C:\\Users\\Juan\\repos\\calcjp\\ais\\3.ai', 'DATA'),
  ('ais\\4.ai', 'C:\\Users\\Juan\\repos\\calcjp\\ais\\4.ai', 'DATA'),
  ('ais\\5.ai', 'C:\\Users\\Juan\\repos\\calcjp\\ais\\5.ai', 'DATA'),
  ('ais\\6.ai', 'C:\\Users\\Juan\\repos\\calcjp\\ais\\6.ai', 'DATA'),
  ('ais\\7.ai', 'C:\\Users\\Juan\\repos\\calcjp\\ais\\7.ai', 'DATA'),
  ('ais\\8.ai', 'C:\\Users\\Juan\\repos\\calcjp\\ais\\8.ai', 'DATA'),
  ('ais\\9.ai', 'C:\\Users\\Juan\\repos\\calcjp\\ais\\9.ai', 'DATA'),
  ('ais\\AC.ai', 'C:\\Users\\Juan\\repos\\calcjp\\ais\\AC.ai', 'DATA'),
  ('ais\\by.ai', 'C:\\Users\\Juan\\repos\\calcjp\\ais\\by.ai', 'DATA'),
  ('ais\\c.ai', 'C:\\Users\\Juan\\repos\\calcjp\\ais\\c.ai', 'DATA'),
  ('ais\\dot.ai', 'C:\\Users\\Juan\\repos\\calcjp\\ais\\dot.ai', 'DATA'),
  ('ais\\is.ai', 'C:\\Users\\Juan\\repos\\calcjp\\ais\\is.ai', 'DATA'),
  ('ais\\logo.ai', 'C:\\Users\\Juan\\repos\\calcjp\\ais\\logo.ai', 'DATA'),
  ('ais\\minus.ai', 'C:\\Users\\Juan\\repos\\calcjp\\ais\\minus.ai', 'DATA'),
  ('ais\\plus.ai', 'C:\\Users\\Juan\\repos\\calcjp\\ais\\plus.ai', 'DATA'),
  ('ais\\times.ai', 'C:\\Users\\Juan\\repos\\calcjp\\ais\\times.ai', 'DATA'),
  ('.idea\\calcjp.iml',
   'C:\\Users\\Juan\\repos\\calcjp\\.idea\\calcjp.iml',
   'DATA'),
  ('.idea\\misc.xml',
   'C:\\Users\\Juan\\repos\\calcjp\\.idea\\misc.xml',
   'DATA'),
  ('.idea\\modules.xml',
   'C:\\Users\\Juan\\repos\\calcjp\\.idea\\modules.xml',
   'DATA'),
  ('.idea\\vcs.xml', 'C:\\Users\\Juan\\repos\\calcjp\\.idea\\vcs.xml', 'DATA'),
  ('.idea\\workspace.xml',
   'C:\\Users\\Juan\\repos\\calcjp\\.idea\\workspace.xml',
   'DATA'),
  ('.git\\COMMIT_EDITMSG',
   'C:\\Users\\Juan\\repos\\calcjp\\.git\\COMMIT_EDITMSG',
   'DATA'),
  ('.git\\config', 'C:\\Users\\Juan\\repos\\calcjp\\.git\\config', 'DATA'),
  ('.git\\description',
   'C:\\Users\\Juan\\repos\\calcjp\\.git\\description',
   'DATA'),
  ('.git\\FETCH_HEAD',
   'C:\\Users\\Juan\\repos\\calcjp\\.git\\FETCH_HEAD',
   'DATA'),
  ('.git\\HEAD', 'C:\\Users\\Juan\\repos\\calcjp\\.git\\HEAD', 'DATA'),
  ('.git\\index', 'C:\\Users\\Juan\\repos\\calcjp\\.git\\index', 'DATA'),
  ('.git\\ORIG_HEAD',
   'C:\\Users\\Juan\\repos\\calcjp\\.git\\ORIG_HEAD',
   'DATA'),
  ('.git\\refs\\remotes\\origin\\master',
   'C:\\Users\\Juan\\repos\\calcjp\\.git\\refs\\remotes\\origin\\master',
   'DATA'),
  ('.git\\refs\\heads\\master',
   'C:\\Users\\Juan\\repos\\calcjp\\.git\\refs\\heads\\master',
   'DATA'),
  ('.git\\objects\\fb\\2352a12606e9f1aa05eeda4a545fa237fdd5d2',
   'C:\\Users\\Juan\\repos\\calcjp\\.git\\objects\\fb\\2352a12606e9f1aa05eeda4a545fa237fdd5d2',
   'DATA'),
  ('.git\\objects\\fb\\b1217f5f71f8927d9505ae9e48d4f73197c1b8',
   'C:\\Users\\Juan\\repos\\calcjp\\.git\\objects\\fb\\b1217f5f71f8927d9505ae9e48d4f73197c1b8',
   'DATA'),
  ('.git\\objects\\f9\\8032bd57413dab9590a29b737457d5418a0969',
   'C:\\Users\\Juan\\repos\\calcjp\\.git\\objects\\f9\\8032bd57413dab9590a29b737457d5418a0969',
   'DATA'),
  ('.git\\objects\\f7\\f87c00f60d6099f8af799422d5077f3809fbd7',
   'C:\\Users\\Juan\\repos\\calcjp\\.git\\objects\\f7\\f87c00f60d6099f8af799422d5077f3809fbd7',
   'DATA'),
  ('.git\\objects\\f5\\ab7a5a97043f8191a56d8dc43eeb824589700c',
   'C:\\Users\\Juan\\repos\\calcjp\\.git\\objects\\f5\\ab7a5a97043f8191a56d8dc43eeb824589700c',
   'DATA'),
  ('.git\\objects\\f4\\7f9a47291ce3735e6c506e9a79f3ef1906c31e',
   'C:\\Users\\Juan\\repos\\calcjp\\.git\\objects\\f4\\7f9a47291ce3735e6c506e9a79f3ef1906c31e',
   'DATA'),
  ('.git\\objects\\eb\\c3c25d9222aff0a4dadea908aad78a1e907b6b',
   'C:\\Users\\Juan\\repos\\calcjp\\.git\\objects\\eb\\c3c25d9222aff0a4dadea908aad78a1e907b6b',
   'DATA'),
  ('.git\\objects\\e8\\5053e433bea398c8d40a495c956d4a23696b25',
   'C:\\Users\\Juan\\repos\\calcjp\\.git\\objects\\e8\\5053e433bea398c8d40a495c956d4a23696b25',
   'DATA'),
  ('.git\\objects\\e7\\c2cec631bdada28342013fd716ca4ee3f103f1',
   'C:\\Users\\Juan\\repos\\calcjp\\.git\\objects\\e7\\c2cec631bdada28342013fd716ca4ee3f103f1',
   'DATA'),
  ('.git\\objects\\e6\\1f58da46d3766b4d05de693142fb92b0f86bcd',
   'C:\\Users\\Juan\\repos\\calcjp\\.git\\objects\\e6\\1f58da46d3766b4d05de693142fb92b0f86bcd',
   'DATA'),
  ('.git\\objects\\e6\\9de29bb2d1d6434b8b29ae775ad8c2e48c5391',
   'C:\\Users\\Juan\\repos\\calcjp\\.git\\objects\\e6\\9de29bb2d1d6434b8b29ae775ad8c2e48c5391',
   'DATA'),
  ('.git\\objects\\e4\\a7df062e198afc95bb456c8e9255ac84b8256e',
   'C:\\Users\\Juan\\repos\\calcjp\\.git\\objects\\e4\\a7df062e198afc95bb456c8e9255ac84b8256e',
   'DATA'),
  ('.git\\objects\\e1\\42611a9209aac1915684369f39708ba6ad9743',
   'C:\\Users\\Juan\\repos\\calcjp\\.git\\objects\\e1\\42611a9209aac1915684369f39708ba6ad9743',
   'DATA'),
  ('.git\\objects\\e0\\2fa1c443fedd5a2c11535565967e8771970407',
   'C:\\Users\\Juan\\repos\\calcjp\\.git\\objects\\e0\\2fa1c443fedd5a2c11535565967e8771970407',
   'DATA'),
  ('.git\\objects\\df\\dec108ff0f0ebea3689c846f5dd59397f71b5a',
   'C:\\Users\\Juan\\repos\\calcjp\\.git\\objects\\df\\dec108ff0f0ebea3689c846f5dd59397f71b5a',
   'DATA'),
  ('.git\\objects\\dd\\141f75363d08f7b741f43af198d9e01e7f086d',
   'C:\\Users\\Juan\\repos\\calcjp\\.git\\objects\\dd\\141f75363d08f7b741f43af198d9e01e7f086d',
   'DATA'),
  ('.git\\objects\\da\\ce7f0915a4bf59614cdca0beaaa9cad55be552',
   'C:\\Users\\Juan\\repos\\calcjp\\.git\\objects\\da\\ce7f0915a4bf59614cdca0beaaa9cad55be552',
   'DATA'),
  ('.git\\objects\\d5\\699d94246e72a9e4615c8f55aa0f50ea86984d',
   'C:\\Users\\Juan\\repos\\calcjp\\.git\\objects\\d5\\699d94246e72a9e4615c8f55aa0f50ea86984d',
   'DATA'),
  ('.git\\objects\\d3\\5b57846e29acffb94df3adaa37895273c5a7ce',
   'C:\\Users\\Juan\\repos\\calcjp\\.git\\objects\\d3\\5b57846e29acffb94df3adaa37895273c5a7ce',
   'DATA'),
  ('.git\\objects\\cb\\a7303d21911224a29b5d7ce229c4ea54f7a52a',
   'C:\\Users\\Juan\\repos\\calcjp\\.git\\objects\\cb\\a7303d21911224a29b5d7ce229c4ea54f7a52a',
   'DATA'),
  ('.git\\objects\\cb\\f381c14f53b3371b13317e0ed81d0cc291e183',
   'C:\\Users\\Juan\\repos\\calcjp\\.git\\objects\\cb\\f381c14f53b3371b13317e0ed81d0cc291e183',
   'DATA'),
  ('.git\\objects\\c4\\dd49024b53bc10fd663f6c81ecd844be2373be',
   'C:\\Users\\Juan\\repos\\calcjp\\.git\\objects\\c4\\dd49024b53bc10fd663f6c81ecd844be2373be',
   'DATA'),
  ('.git\\objects\\c0\\10c77cdd28402bad4c303ee63a20c7b5be88af',
   'C:\\Users\\Juan\\repos\\calcjp\\.git\\objects\\c0\\10c77cdd28402bad4c303ee63a20c7b5be88af',
   'DATA'),
  ('.git\\objects\\bf\\47be04b3f96d86a43ce0cf434fa39ef5670831',
   'C:\\Users\\Juan\\repos\\calcjp\\.git\\objects\\bf\\47be04b3f96d86a43ce0cf434fa39ef5670831',
   'DATA'),
  ('.git\\objects\\bd\\20d16ac3a94274c70223263f85a8f58826494e',
   'C:\\Users\\Juan\\repos\\calcjp\\.git\\objects\\bd\\20d16ac3a94274c70223263f85a8f58826494e',
   'DATA'),
  ('.git\\objects\\ba\\4680aaa94d3fa3d0055973faf5822485c77b0e',
   'C:\\Users\\Juan\\repos\\calcjp\\.git\\objects\\ba\\4680aaa94d3fa3d0055973faf5822485c77b0e',
   'DATA'),
  ('.git\\objects\\b7\\4af322da78c0ea174f72faba4b91ed3541a7d8',
   'C:\\Users\\Juan\\repos\\calcjp\\.git\\objects\\b7\\4af322da78c0ea174f72faba4b91ed3541a7d8',
   'DATA'),
  ('.git\\objects\\b5\\923ebccc93c7990130ebae1d438a5bb2918f3d',
   'C:\\Users\\Juan\\repos\\calcjp\\.git\\objects\\b5\\923ebccc93c7990130ebae1d438a5bb2918f3d',
   'DATA'),
  ('.git\\objects\\b2\\3d48de9f69b3c696214f05aba0f02676225119',
   'C:\\Users\\Juan\\repos\\calcjp\\.git\\objects\\b2\\3d48de9f69b3c696214f05aba0f02676225119',
   'DATA'),
  ('.git\\objects\\b1\\ad2283b3d3e5fdd23e6f14aa452f21697c0be8',
   'C:\\Users\\Juan\\repos\\calcjp\\.git\\objects\\b1\\ad2283b3d3e5fdd23e6f14aa452f21697c0be8',
   'DATA'),
  ('.git\\objects\\aa\\dd96808452ef38e2795d322a0f67ab70939428',
   'C:\\Users\\Juan\\repos\\calcjp\\.git\\objects\\aa\\dd96808452ef38e2795d322a0f67ab70939428',
   'DATA'),
  ('.git\\objects\\a7\\2bb1461aeefacb4863c84c27170a586766cab1',
   'C:\\Users\\Juan\\repos\\calcjp\\.git\\objects\\a7\\2bb1461aeefacb4863c84c27170a586766cab1',
   'DATA'),
  ('.git\\objects\\a4\\63f2947af8fa434a96e5b673eb8f48835c29e0',
   'C:\\Users\\Juan\\repos\\calcjp\\.git\\objects\\a4\\63f2947af8fa434a96e5b673eb8f48835c29e0',
   'DATA'),
  ('.git\\objects\\a4\\b33c16deb7558d9f95d31cab611c039f7c2299',
   'C:\\Users\\Juan\\repos\\calcjp\\.git\\objects\\a4\\b33c16deb7558d9f95d31cab611c039f7c2299',
   'DATA'),
  ('.git\\objects\\a0\\5a8de278f1dcf7edb823aeacee58a571d3784c',
   'C:\\Users\\Juan\\repos\\calcjp\\.git\\objects\\a0\\5a8de278f1dcf7edb823aeacee58a571d3784c',
   'DATA'),
  ('.git\\objects\\9e\\d26f22d70a7a247189edbf5b365272da50e3a6',
   'C:\\Users\\Juan\\repos\\calcjp\\.git\\objects\\9e\\d26f22d70a7a247189edbf5b365272da50e3a6',
   'DATA'),
  ('.git\\objects\\9b\\3f4ef078afdb016b6041aa03e2603cd79220df',
   'C:\\Users\\Juan\\repos\\calcjp\\.git\\objects\\9b\\3f4ef078afdb016b6041aa03e2603cd79220df',
   'DATA'),
  ('.git\\objects\\9a\\f4d6321975f4a69de8348acf835373d914d4cb',
   'C:\\Users\\Juan\\repos\\calcjp\\.git\\objects\\9a\\f4d6321975f4a69de8348acf835373d914d4cb',
   'DATA'),
  ('.git\\objects\\9a\\f734a08c895e7b73cf1b150e5600c4e45c0178',
   'C:\\Users\\Juan\\repos\\calcjp\\.git\\objects\\9a\\f734a08c895e7b73cf1b150e5600c4e45c0178',
   'DATA'),
  ('.git\\objects\\92\\40f1397c8bdb93d9de5a5131bb9517f31cd701',
   'C:\\Users\\Juan\\repos\\calcjp\\.git\\objects\\92\\40f1397c8bdb93d9de5a5131bb9517f31cd701',
   'DATA'),
  ('.git\\objects\\91\\85b84cab02d6df0dea74a931be8f3aee24c34e',
   'C:\\Users\\Juan\\repos\\calcjp\\.git\\objects\\91\\85b84cab02d6df0dea74a931be8f3aee24c34e',
   'DATA'),
  ('.git\\objects\\90\\6891d7e64bbf1bf26a99f01fa24369be3cd8d6',
   'C:\\Users\\Juan\\repos\\calcjp\\.git\\objects\\90\\6891d7e64bbf1bf26a99f01fa24369be3cd8d6',
   'DATA'),
  ('.git\\objects\\8a\\313958b977ae3dfe489b0cabf315360a891d5d',
   'C:\\Users\\Juan\\repos\\calcjp\\.git\\objects\\8a\\313958b977ae3dfe489b0cabf315360a891d5d',
   'DATA'),
  ('.git\\objects\\88\\4408c4ff5d5d39ef6555c3eae5fd558938fc48',
   'C:\\Users\\Juan\\repos\\calcjp\\.git\\objects\\88\\4408c4ff5d5d39ef6555c3eae5fd558938fc48',
   'DATA'),
  ('.git\\objects\\84\\f8b13515756aeecc08cb7ac7b45f26a0b3367b',
   'C:\\Users\\Juan\\repos\\calcjp\\.git\\objects\\84\\f8b13515756aeecc08cb7ac7b45f26a0b3367b',
   'DATA'),
  ('.git\\objects\\82\\771d84f3b44b5af9749e1428d884b3277a3779',
   'C:\\Users\\Juan\\repos\\calcjp\\.git\\objects\\82\\771d84f3b44b5af9749e1428d884b3277a3779',
   'DATA'),
  ('.git\\objects\\7e\\74ac2bc3782e49c6dbf53ae51ee550432f03dc',
   'C:\\Users\\Juan\\repos\\calcjp\\.git\\objects\\7e\\74ac2bc3782e49c6dbf53ae51ee550432f03dc',
   'DATA'),
  ('.git\\objects\\7a\\0c3756defd7d76abee594087404743627949c4',
   'C:\\Users\\Juan\\repos\\calcjp\\.git\\objects\\7a\\0c3756defd7d76abee594087404743627949c4',
   'DATA'),
  ('.git\\objects\\79\\9ffac5c0edcb551bc56ff64adfff8622c5664f',
   'C:\\Users\\Juan\\repos\\calcjp\\.git\\objects\\79\\9ffac5c0edcb551bc56ff64adfff8622c5664f',
   'DATA'),
  ('.git\\objects\\77\\26b6b2893bea25272ca819f72d16396898e2f1',
   'C:\\Users\\Juan\\repos\\calcjp\\.git\\objects\\77\\26b6b2893bea25272ca819f72d16396898e2f1',
   'DATA'),
  ('.git\\objects\\76\\7f4e33021ff1d0418665d5383269427c9b6787',
   'C:\\Users\\Juan\\repos\\calcjp\\.git\\objects\\76\\7f4e33021ff1d0418665d5383269427c9b6787',
   'DATA'),
  ('.git\\objects\\71\\299d96af673bf5de32db393e06eafdefacb627',
   'C:\\Users\\Juan\\repos\\calcjp\\.git\\objects\\71\\299d96af673bf5de32db393e06eafdefacb627',
   'DATA'),
  ('.git\\objects\\6d\\170cf6469f89890b2dd860852d7cae8e2d8ab9',
   'C:\\Users\\Juan\\repos\\calcjp\\.git\\objects\\6d\\170cf6469f89890b2dd860852d7cae8e2d8ab9',
   'DATA'),
  ('.git\\objects\\6a\\9676ef119547108b4138fef92920fde8e0eb85',
   'C:\\Users\\Juan\\repos\\calcjp\\.git\\objects\\6a\\9676ef119547108b4138fef92920fde8e0eb85',
   'DATA'),
  ('.git\\objects\\69\\9ef5ecd5f32bd30fc3c79381f6e59d2a0bcd89',
   'C:\\Users\\Juan\\repos\\calcjp\\.git\\objects\\69\\9ef5ecd5f32bd30fc3c79381f6e59d2a0bcd89',
   'DATA'),
  ('.git\\objects\\65\\df047ed462240d8d5a3e9be7d95b8c2dfac859',
   'C:\\Users\\Juan\\repos\\calcjp\\.git\\objects\\65\\df047ed462240d8d5a3e9be7d95b8c2dfac859',
   'DATA'),
  ('.git\\objects\\64\\11673a21b896bd904c2ee421b4158c7ac91846',
   'C:\\Users\\Juan\\repos\\calcjp\\.git\\objects\\64\\11673a21b896bd904c2ee421b4158c7ac91846',
   'DATA'),
  ('.git\\objects\\64\\45b2633889fb247764e127366a74f425132bf5',
   'C:\\Users\\Juan\\repos\\calcjp\\.git\\objects\\64\\45b2633889fb247764e127366a74f425132bf5',
   'DATA'),
  ('.git\\objects\\61\\6652f6d7840eb07903ef44a0d4e77fc06c9d97',
   'C:\\Users\\Juan\\repos\\calcjp\\.git\\objects\\61\\6652f6d7840eb07903ef44a0d4e77fc06c9d97',
   'DATA'),
  ('.git\\objects\\5d\\4e5dfd40144f1ef451f2c6d5505efef0c2e5df',
   'C:\\Users\\Juan\\repos\\calcjp\\.git\\objects\\5d\\4e5dfd40144f1ef451f2c6d5505efef0c2e5df',
   'DATA'),
  ('.git\\objects\\5b\\6b73565b6bdeb412d9e6371f346062e451f175',
   'C:\\Users\\Juan\\repos\\calcjp\\.git\\objects\\5b\\6b73565b6bdeb412d9e6371f346062e451f175',
   'DATA'),
  ('.git\\objects\\5a\\5556b0e5b96d303762fdfca66994467106ae10',
   'C:\\Users\\Juan\\repos\\calcjp\\.git\\objects\\5a\\5556b0e5b96d303762fdfca66994467106ae10',
   'DATA'),
  ('.git\\objects\\57\\22233beb572b8326b6315859306e133f6862b8',
   'C:\\Users\\Juan\\repos\\calcjp\\.git\\objects\\57\\22233beb572b8326b6315859306e133f6862b8',
   'DATA'),
  ('.git\\objects\\57\\fcd7329b108371bf5ae3d63f1bc2a6ad9e4b89',
   'C:\\Users\\Juan\\repos\\calcjp\\.git\\objects\\57\\fcd7329b108371bf5ae3d63f1bc2a6ad9e4b89',
   'DATA'),
  ('.git\\objects\\54\\15bd2cad81b6dae97fc2685f442f2ccaca9caa',
   'C:\\Users\\Juan\\repos\\calcjp\\.git\\objects\\54\\15bd2cad81b6dae97fc2685f442f2ccaca9caa',
   'DATA'),
  ('.git\\objects\\53\\6b32a17b8748c3129094579e60964f42e91b88',
   'C:\\Users\\Juan\\repos\\calcjp\\.git\\objects\\53\\6b32a17b8748c3129094579e60964f42e91b88',
   'DATA'),
  ('.git\\objects\\52\\5e2b304816db61884d977aa17a83a8e0268d49',
   'C:\\Users\\Juan\\repos\\calcjp\\.git\\objects\\52\\5e2b304816db61884d977aa17a83a8e0268d49',
   'DATA'),
  ('.git\\objects\\4c\\01fd1ebdb647f268697425ad192da1b61cffad',
   'C:\\Users\\Juan\\repos\\calcjp\\.git\\objects\\4c\\01fd1ebdb647f268697425ad192da1b61cffad',
   'DATA'),
  ('.git\\objects\\46\\d2c718b4a5c0e2a0b923322f47a4f43633b0d8',
   'C:\\Users\\Juan\\repos\\calcjp\\.git\\objects\\46\\d2c718b4a5c0e2a0b923322f47a4f43633b0d8',
   'DATA'),
  ('.git\\objects\\3a\\8241384a5f81f14387e4455349afac9e1b93e6',
   'C:\\Users\\Juan\\repos\\calcjp\\.git\\objects\\3a\\8241384a5f81f14387e4455349afac9e1b93e6',
   'DATA'),
  ('.git\\objects\\36\\2d221086b533ab6ba2548cbfde5a517d81c68b',
   'C:\\Users\\Juan\\repos\\calcjp\\.git\\objects\\36\\2d221086b533ab6ba2548cbfde5a517d81c68b',
   'DATA'),
  ('.git\\objects\\34\\eebf091234686a9fec5faa6eaee8f9064d2540',
   'C:\\Users\\Juan\\repos\\calcjp\\.git\\objects\\34\\eebf091234686a9fec5faa6eaee8f9064d2540',
   'DATA'),
  ('.git\\objects\\32\\0ea0cea73ca0bd8702691af14adbbf17bf0c88',
   'C:\\Users\\Juan\\repos\\calcjp\\.git\\objects\\32\\0ea0cea73ca0bd8702691af14adbbf17bf0c88',
   'DATA'),
  ('.git\\objects\\31\\730fc0a2c30cc295a2dc9b3a1faecd52ce3740',
   'C:\\Users\\Juan\\repos\\calcjp\\.git\\objects\\31\\730fc0a2c30cc295a2dc9b3a1faecd52ce3740',
   'DATA'),
  ('.git\\objects\\31\\eda795b99e1b7bf3de7942b3b4ce41e78d707d',
   'C:\\Users\\Juan\\repos\\calcjp\\.git\\objects\\31\\eda795b99e1b7bf3de7942b3b4ce41e78d707d',
   'DATA'),
  ('.git\\objects\\31\\f7cb9ba7656613933ae71dbd77106d03963a9a',
   'C:\\Users\\Juan\\repos\\calcjp\\.git\\objects\\31\\f7cb9ba7656613933ae71dbd77106d03963a9a',
   'DATA'),
  ('.git\\objects\\30\\3df57d22b0c53713dbc5293ff417ed3aa8e04f',
   'C:\\Users\\Juan\\repos\\calcjp\\.git\\objects\\30\\3df57d22b0c53713dbc5293ff417ed3aa8e04f',
   'DATA'),
  ('.git\\objects\\2d\\a7af9b06b038e28cc3fc988571111b2462aca4',
   'C:\\Users\\Juan\\repos\\calcjp\\.git\\objects\\2d\\a7af9b06b038e28cc3fc988571111b2462aca4',
   'DATA'),
  ('.git\\objects\\28\\8d8d87c04f1cd49c432bb26f94cf09e1a8908f',
   'C:\\Users\\Juan\\repos\\calcjp\\.git\\objects\\28\\8d8d87c04f1cd49c432bb26f94cf09e1a8908f',
   'DATA'),
  ('.git\\objects\\25\\3e42b39570d0b59287b08fdd269413bd371731',
   'C:\\Users\\Juan\\repos\\calcjp\\.git\\objects\\25\\3e42b39570d0b59287b08fdd269413bd371731',
   'DATA'),
  ('.git\\objects\\25\\9c11b92df7fcb87fb8082f86b95f76317a42c7',
   'C:\\Users\\Juan\\repos\\calcjp\\.git\\objects\\25\\9c11b92df7fcb87fb8082f86b95f76317a42c7',
   'DATA'),
  ('.git\\objects\\1e\\ec070f6d7e90b9b72e45bf8e851d35c2eeb098',
   'C:\\Users\\Juan\\repos\\calcjp\\.git\\objects\\1e\\ec070f6d7e90b9b72e45bf8e851d35c2eeb098',
   'DATA'),
  ('.git\\objects\\1a\\d145c2dfa5fbabb1f40714d699d244406ee7e0',
   'C:\\Users\\Juan\\repos\\calcjp\\.git\\objects\\1a\\d145c2dfa5fbabb1f40714d699d244406ee7e0',
   'DATA'),
  ('.git\\objects\\19\\2143ca4371c12344d1e001e26db0a619ac5d6d',
   'C:\\Users\\Juan\\repos\\calcjp\\.git\\objects\\19\\2143ca4371c12344d1e001e26db0a619ac5d6d',
   'DATA'),
  ('.git\\objects\\17\\367df35a73117c96ca4118ffc561dc1ca2eb44',
   'C:\\Users\\Juan\\repos\\calcjp\\.git\\objects\\17\\367df35a73117c96ca4118ffc561dc1ca2eb44',
   'DATA'),
  ('.git\\objects\\17\\d289b38c2abd65dc93dc8645222ac9e308c737',
   'C:\\Users\\Juan\\repos\\calcjp\\.git\\objects\\17\\d289b38c2abd65dc93dc8645222ac9e308c737',
   'DATA'),
  ('.git\\objects\\0d\\bae4cf3dd26db766d21267b1586c28ec71a81b',
   'C:\\Users\\Juan\\repos\\calcjp\\.git\\objects\\0d\\bae4cf3dd26db766d21267b1586c28ec71a81b',
   'DATA'),
  ('.git\\objects\\0d\\d1e8fc3c51a9fe3b5125fbe07bc9d9b4c0b988',
   'C:\\Users\\Juan\\repos\\calcjp\\.git\\objects\\0d\\d1e8fc3c51a9fe3b5125fbe07bc9d9b4c0b988',
   'DATA'),
  ('.git\\objects\\0a\\5ab959e45e6adb0d9d5c0b790bf610c6fca3f3',
   'C:\\Users\\Juan\\repos\\calcjp\\.git\\objects\\0a\\5ab959e45e6adb0d9d5c0b790bf610c6fca3f3',
   'DATA'),
  ('.git\\objects\\09\\29a8bc49784637d7f3deefcdd6541c99bb03a9',
   'C:\\Users\\Juan\\repos\\calcjp\\.git\\objects\\09\\29a8bc49784637d7f3deefcdd6541c99bb03a9',
   'DATA'),
  ('.git\\objects\\08\\3bc5826c7111f3a7a164b71d40088b4a63fc52',
   'C:\\Users\\Juan\\repos\\calcjp\\.git\\objects\\08\\3bc5826c7111f3a7a164b71d40088b4a63fc52',
   'DATA'),
  ('.git\\objects\\08\\8905027c960e60c7673d0134390cf6cac144a7',
   'C:\\Users\\Juan\\repos\\calcjp\\.git\\objects\\08\\8905027c960e60c7673d0134390cf6cac144a7',
   'DATA'),
  ('.git\\objects\\06\\b2941e693a8b2fb67b558f124d9ec91a00d7f9',
   'C:\\Users\\Juan\\repos\\calcjp\\.git\\objects\\06\\b2941e693a8b2fb67b558f124d9ec91a00d7f9',
   'DATA'),
  ('.git\\objects\\03\\196dca77b9a3f11dbce82f0067d6799ed25303',
   'C:\\Users\\Juan\\repos\\calcjp\\.git\\objects\\03\\196dca77b9a3f11dbce82f0067d6799ed25303',
   'DATA'),
  ('.git\\objects\\01\\d466f3a1cf18fd6e155c305e4aecf63a5675c3',
   'C:\\Users\\Juan\\repos\\calcjp\\.git\\objects\\01\\d466f3a1cf18fd6e155c305e4aecf63a5675c3',
   'DATA'),
  ('.git\\logs\\HEAD',
   'C:\\Users\\Juan\\repos\\calcjp\\.git\\logs\\HEAD',
   'DATA'),
  ('.git\\logs\\refs\\remotes\\origin\\master',
   'C:\\Users\\Juan\\repos\\calcjp\\.git\\logs\\refs\\remotes\\origin\\master',
   'DATA'),
  ('.git\\logs\\refs\\heads\\master',
   'C:\\Users\\Juan\\repos\\calcjp\\.git\\logs\\refs\\heads\\master',
   'DATA'),
  ('.git\\info\\exclude',
   'C:\\Users\\Juan\\repos\\calcjp\\.git\\info\\exclude',
   'DATA'),
  ('.git\\hooks\\applypatch-msg.sample',
   'C:\\Users\\Juan\\repos\\calcjp\\.git\\hooks\\applypatch-msg.sample',
   'DATA'),
  ('.git\\hooks\\commit-msg.sample',
   'C:\\Users\\Juan\\repos\\calcjp\\.git\\hooks\\commit-msg.sample',
   'DATA'),
  ('.git\\hooks\\fsmonitor-watchman.sample',
   'C:\\Users\\Juan\\repos\\calcjp\\.git\\hooks\\fsmonitor-watchman.sample',
   'DATA'),
  ('.git\\hooks\\post-update.sample',
   'C:\\Users\\Juan\\repos\\calcjp\\.git\\hooks\\post-update.sample',
   'DATA'),
  ('.git\\hooks\\pre-applypatch.sample',
   'C:\\Users\\Juan\\repos\\calcjp\\.git\\hooks\\pre-applypatch.sample',
   'DATA'),
  ('.git\\hooks\\pre-commit.sample',
   'C:\\Users\\Juan\\repos\\calcjp\\.git\\hooks\\pre-commit.sample',
   'DATA'),
  ('.git\\hooks\\pre-push.sample',
   'C:\\Users\\Juan\\repos\\calcjp\\.git\\hooks\\pre-push.sample',
   'DATA'),
  ('.git\\hooks\\pre-rebase.sample',
   'C:\\Users\\Juan\\repos\\calcjp\\.git\\hooks\\pre-rebase.sample',
   'DATA'),
  ('.git\\hooks\\pre-receive.sample',
   'C:\\Users\\Juan\\repos\\calcjp\\.git\\hooks\\pre-receive.sample',
   'DATA'),
  ('.git\\hooks\\prepare-commit-msg.sample',
   'C:\\Users\\Juan\\repos\\calcjp\\.git\\hooks\\prepare-commit-msg.sample',
   'DATA'),
  ('.git\\hooks\\update.sample',
   'C:\\Users\\Juan\\repos\\calcjp\\.git\\hooks\\update.sample',
   'DATA')])
